{
    "searchname": "PollingVoting",
    "searchFilterView": [],
    "inTagsSearch": [],
    "notInTagsSearch": [],
    "operator": "and",
    "projections": {
        "_id": 1,
        "entityType": 1,
        "entityId": 1,
        "subject": 1,
        "description": 1,
        "participants": 1,
        "opensOn": 1,
        "closesOn": 1,
        "ProductId": 1,
        "StatusWorkFlowId": 1
    },
    "sorts": {
        "entityId": -1
    }
}