{
    "applicationCreation": {
        "owners": {
            "maxOwnersCount": 4
        }
    },
    "lmsAccess":true,
    "leadStatus": "100.10",
    "declinedStatus": [
        "100.91",
        "100.92",
        "100.93",
        "500.91",
        "500.92",
        "500.93",
        "700.91",
        "700.92",
        "700.93"
    ]
}