{
	"DurationType": "Month",
	"DataAttributes": {
		"BP2Attributes": "bp2Attributes",
		"ComputedOffers": "computedOffers"
	},
	"OriginatingFeeMinLoanAmount": 14750,
	"FixedOriginatingFee": 295,
	"OriginatingFeePer": 2,
	"ACHFee": 35,
	"reApplyTimeFrame": 90,
	"DefaultSource": 1
}