{
    "BanklookupUrl": "http://www.webservicex.com/aba.asmx/GetABADetailsByRoutingNumber",
    "Source": "Manual",
    "DataAttributeStoreName": "plaidCashflow",
    "RuleName": {
        "plaid": "PlaidCalculateCashFlow",
        "finicity": "FinicityCalculateCashFlow"
    },
    "CashflowReportConfig": {
        "Category": "cashflow",
        "Logo": "http://52.52.235.52:9003/images/header_idea.png",
        "Consolidated": {
            "IsActive": true,
            "Transactions": true,
            "RecurringTransactions": true
        },
        "MonthlySummary": {
            "IsActive": true,
            "Transactions": true
        }
    },
    "events": [
        {
            "Name": "ExtractAccountsAndTransactions",
            "EntityId": "{Data.EntityId}",
            "Request": "{Data.Request}",
            "Response": "{Data.Response}",
            "EntityType": "{Data.EntityType}",
            "MethodToExecute": "ExtractAccountsAndTransactionsHandler",
            "CompletionEventName": "BankLinked",
            "DERuleName": "ExtractPlaidData",
            "InitiateCashflow": true
        },
        {
            "Name": "CSVAccountAndTransactionRequested",
            "EntityId": "{Data.Response.EntityId}",
            "Response": "{Data.Response}",
            "EntityType": "{Data.Response.EntityType}",
            "MethodToExecute": "CalculateManunalCashFlowEventHandler",
            "CompletionEventName": "BankLinked",
            "DERuleName": "ExtractCSVData",
            "InitiateCashflow": true
        },
        {
            "Name": "FinicityUserActionRequired",
            "EntityId": "{Data.EntityId}",
            "Response": "{Data.Response}",
            "Request": "{Data.Request}",
            "EntityType": "{Data.EntityType}",
            "MethodToExecute": "FinicityUserActionHandler",
            "CompletionEventName": "",
            "DERuleName": "ExtractFinicityUserAction",
            "InitiateCashflow": false
        },
        {
            "Name": "FinicityAllTransactionReceived",
            "EntityId": "{Data.EntityId}",
            "Response": "{Data.Response}",
            "Request": "{Data.Request}",
            "EntityType": "{Data.EntityType}",
            "MethodToExecute": "FinicityAllTransactionReceivedHandler",
            "CompletionEventName": "BankLinked",
            "DERuleName": "",
            "InitiateCashflow": false
        },
        {
            "Name": "INBOUND_HOOK_INVOKED",
            "EntityId": "{Data.EntityId}",
            "Response": "{Data.Response}",
            "Request": "{Data.Request}",
            "EntityType": "{Data.EntityType}",
            "MethodToExecute": "InBoundHookInvokedHandler",
            "CompletionEventName": "",
            "DERuleName": "ExtractWebHookInvockedData",
            "InitiateCashflow": false
        },
        {
            "Name": "CalculateCashflowDrawDown",
            "EntityId": "{Data.EntityId}",
            "AccessToken": "{Data.AccessToken}",
            "BankSupportedProductType": "{Data.BankSupportedProductType}",
            "EntityType": "{Data.EntityType}",
            "MethodToExecute": "CalculateCashFlowEventHandler",
            "CompletionEventName": "",
            "DERuleName": "ExtractPlaidData",
            "InitiateCashflow": true
        },
        {
            "Name": "PerfectAuditTransactionPulled",
            "EntityId": "{Data.EntityId}",
            "Request": "{Data.Request}",
            "Response": "{Data.Response}",
            "EntityType": "{Data.EntityType}",
            "MethodToExecute": "SaveAccountDetailsOcrolusHandler",
            "CompletionEventName": "",
            "DERuleName": "ExtractOcrolusData",
            "InitiateCashflow": false
        }
    ]
}