{
    "emailProvider": "SendGrid",
    "emailProviderSettings": {
      "SendGrid": {
        "ApiKey": "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",
        "FromName": "LendFoundry Development",
        "FromAddress": "development@lendfoundry.com"
      }
    }
  }