{
  "eventhub": "http://{{internal_ip}}:7002",
  "scorecard": "http://{{internal_ip}}:7023",
  "rulesengine": "http://{{internal_ip}}:5209",
  "hunter": "http://{{internal_ip}}:5090/verify-email/app/1/",
  "identity": "http://{{internal_ip}}:7018",
  "application": "http://{{internal_ip}}:7036",
  "consent": "http://{{internal_ip}}:7025",
  "status-management": "http://{{internal_ip}}:7021",
  "wsproxy": "http://{{internal_ip}}:6013",
  "application-processor": "http://{{internal_ip}}:7038",
  "lookupservice": "http://{{internal_ip}}:7005",
  "application-filters": "http://{{internal_ip}}:7052",
  "application-filter": "http://{{internal_ip}}:7037",
  "verification-engine": "http://{{internal_ip}}:7020",
  "document-service": "http://{{internal_ip}}:7019",
  "doc-download-service": "http://{{internal_ip}}:7013",
  "configuration": "http://{{internal_ip}}:7001",
  "offer-engine": "http://{{internal_ip}}:7039",
  "dataAttributes": "http://{{internal_ip}}:7012",
  "activityList": "http://{{internal_ip}}:7006",
  "orbit-identity": "http://{{internal_ip}}:7100",
  "webhook-notifier": "http://{{internal_ip}}:7056",
  "applicant-detail": "http://{{internal_ip}}:7035",
  "partners": "http://{{internal_ip}}:7044",
  "email-service": "http://{{internal_ip}}:7054",
  "asset-service": "http://{{internal_ip}}:7102",
  "metricService": "http://{{internal_ip}}:7065",
  "finicity": "http://{{internal_ip}}:7201",
  "syndication": "http://{{internal_ip}}:7033",
  "drawdown":"http://{{internal_ip}}:7088",
  "drawdown-filter":"http://{{internal_ip}}:7089",
  "drawdown-processor":"http://{{internal_ip}}:7090",
  "loan-management": "http://{{internal_ip}}:7092",
  "loan-accounting": "http://{{internal_ip}}:7093",
  "payment-processor": "http://{{internal_ip}}:7095",
  "product-service":"http://{{internal_ip}}:7053"
}
