{
    "businessReportConfiguration": {
        "NetConnectSubscriber": "capitalalliance_bisdemo",
        "NetConnectPassword": "Sigma@12345",
        "NetConnectPasswordHash": "KuYeeBJaO3xPwQwdKyT/Tw==",
        "NetConnectRequestUrl": "https://dm1.experian.com/netconnect2_0Demo/servlets/NetConnectServlet",
        "Eai": "OXOEYRDW",
        "DbHost": "BISTEST",
        "ReferenceId": null,
        "Preamble": "TBD1",
        "OpInitials": "OP",
        "SubCode": "0487130",
        "ArfVersion": "07",
        "VendorNumber": "BIS183",
        "VendorVersion": null,
        "BusinessVerbose": "Y",
        "UseProxy": false,
        "ProxyUrl": null,
        "AddOnsList": "Y",
        "AddOnsBUSP": "Y"
    },
    "personalReportConfiguration": {
        "NetConnectSubscriber": "sigma_cagpp_demo",
        "NetConnectPassword": "L3ndF0undry",
        "NetConnectPasswordHash": "/yRFiXtSs5UTslnthCpgng==",
        "NetConnectRequestUrl": "https://dm1.experian.com/netconnect2_0Demo/servlets/NetConnectServlet",
        "Eai": "OXOEYRDW",
        "DbHost": "STAR",
        "ReferenceId": "CAGPP",
        "Preamble": "TBD1",
        "OpInitials": "OP",
        "SubCode": "1940067",
        "ArfVersion": "07",
        "Verbose": "Y",
        "Demographics": "Y",
        "Y2K": "Y",
        "Segment130": "Y",
        "VendorNumber": "969",
        "VendorVersion": "1",
        "UseProxy": false,
        "ProxyUrl": null,
        "AccountType": "3F",
        "RiskModels": "Y",
        "CustomRRDashKeyword": "XXP1"
    },
    "PasswordResetURL": "https://ss3.experian.com/securecontrol/reset/passwordreset",
    "EcalsTransactionUrl": "http://{{internal_ip}}:7022/ExperianUrl/EcalsUrl",
    "ExperianHostName": "{{trim_ip}}",
    "RequiredCertificateVerification": false,
    "DigitalCheckUrl": null
}