{
  "FedChexExportConfig": {
    "FedChexFileStoragePath": "{{FedChexFileStoragePath}}",
    "ExportTag": "ReadyForFunding",
    "SftpConfiguration": {
      "Host": "{{Host}}",
      "Port": "{{Port}}",
      "Username": "{{UserName}}",
      "Password": "{{Password}}"
    },
    "MerchantId": "10048070",
    "FileDescriptor": "CA",
    "FileTypeNumericValue": "100",
    "SECCode": "CCD",
    "FedChexDataRule": {
      "Name": "get_fedchex_records",
      "Version": "1.0"
    },
    "CsvProjection": null
  }
}