{
    "scorecards": {
      "application": [
        {
          "ProductId": "ABV123",
          "DataSources": [
            {
              "Name": "GetApplicationData",
              "RefreshStyle": "OnEachRequest",
              "MaxAttempt": 1,
              "WaitInterval": 0,
              "ScoreCardCategory": "InitialOffer"
            },
            {
              "Name": "GetGeoRiskData",
              "RefreshStyle": "OnEachRequest",
              "MaxAttempt": 1,
              "WaitInterval": 0,
              "ScoreCardCategory": "InitialOffer"
            },
            {
              "Name": "CrifPan",
              "RefreshStyle": "OnEachRequest",
              "MaxAttempt": 1,
              "WaitInterval": 2,
              "ScoreCardCategory": "InitialOffer"
            },
            {
              "Name": "CrifCreditReport",
              "RefreshStyle": "OnEachRequest",
              "MaxAttempt": 1,
              "WaitInterval": 2,
              "ScoreCardCategory": "InitialOffer"
            },
            {
              "Name": "Perfios",
              "RefreshStyle": "OnEachRequest",
              "MaxAttempt": 1,
              "WaitInterval": 0,
              "ScoreCardCategory": "FinalOffer"
            },
            {
              "Name": "Lenddo",
              "RefreshStyle": "OnEachRequest",
              "MaxAttempt": 1,
              "WaitInterval": 0,
              "ScoreCardCategory": "FinalOffer"
            }
          ],
          "Sections": [
            {
              "Name": "EligibilityChecks",
              "Groups": [
                {
                  "Name": "PreScreen",
                  "Rules": [
                    {
                      "Name": "ScoreCardEligibilityCheckRule",
                      "Version": "1.0"
                    },
                    {
                      "Name": "CrifPanVerificationEligibilityCheckRule",
                      "Version": "1.0"
                    },
                    {
                      "Name": "GeoRiskRejectionRule",
                      "Version": "1.0"
                    },
                    {
                      "Name": "GeoRiskClassificationRule",
                      "Version": "1.0"
                    },
                    {
                      "Name": "ThickFileRejectionRule",
                      "Version": "1.0"
                    }
                  ]
                }
              ]
            },
            {
              "Name": "ScoringRules",
              "Groups": [
                {
                  "Name": "InitialOfferScoring",
                  "Rules": [
                    {
                      "Name": "ScoreCardBureauScoreRule",
                      "Version": "1.0"
                    }
                  ]
                }
              ]
            },
            {
              "Name": "OfferRules",
              "Groups": [
                {
                  "Name": "InitialOfferCalculation",
                  "Rules": [
                    {
                      "Name": "InitialOfferScoreCalculationRule",
                      "Version": "1.0"
                    }
                  ]
                }
              ]
            }
          ]
        }
      ]
    }
  }