{
    "entityTypes": {
        "application": {
            "StatusWorkFlows": [
                {
                    "Name": "ApprovalFlow",
                    "Description": "Approve Process for Application",
                    "DefaultInitiateCode": "100.10",
                    "checklist": [
                        {
                            "code": "verification",
                            "title": "Verification completed",
                            "ruleName": "ruleForVerificationChecklist",
                            "ruleVersion": "1.0"
                        },
                        {
                            "code": "docrequestedChecklist",
                            "title": "Verification completed",
                            "ruleName": "ruleForIdandBankVerificationChecklist",
                            "ruleVersion": "1.0"
                        },
                        {
                            "code": "approvedforfundingChecklist",
                            "title": "Verification completed",
                            "ruleName": "ruleForApprovedForFundingChecklist",
                            "ruleVersion": "1.0"
                        }
                    ],
                    "statuses": [
                        {
                            "code": "100.10",
                            "name": "Lead Created",
                            "label": "Lead",
                            "style": "Lead",
                            "checklist": [],
                            "transitions": [
                                "100.10",
                                "100.20",
                                "500.91",
                                "500.92",
                                "500.93"
                            ],
                            "activities": {
                                "Contacted but No Answer": "Contacted but no answer",
                                "Number Not Reachable": "Number not reachable",
                                "Notes": "Notes",
                                "Call from Borrower": "Call from borrower",
                                "Borrower Followup": "Borrower followup"
                            },
                            "reasons": {}
                        },
                        {
                            "code": "100.20",
                            "name": "Application Submitted",
                            "label": "Submitted",
                            "style": "Submitted",
                            "checklist": [],
                            "transitions": [
                                "100.20",
                                "100.30",
                                "100.40",
                                "500.91",
                                "500.92",
                                "500.93"
                            ],
                            "activities": {
                                "Contacted but No Answer": "Contacted but no answer",
                                "Number Not Reachable": "Number not reachable",
                                "Notes": "Notes",
                                "Call from Borrower": "Call from borrower",
                                "Borrower Followup": "Borrower followup"
                            },
                            "reasons": {}
                        },
                        {
                            "code": "100.30",
                            "name": "Verification",
                            "label": "Verification",
                            "style": "Verification",
                            "checklist": [
                                "verification"
                            ],
                            "transitions": [
                                "100.30",
                                "500.10",
                                "600.50",
                                "500.91",
                                "500.92",
                                "500.93"
                            ],
                            "activities": {
                                "Contacted but No Answer": "Contacted but no answer",
                                "Number Not Reachable": "Number not reachable",
                                "Notes": "Notes",
                                "Call from Borrower": "Call from borrower",
                                "Borrower Followup": "Borrower followup"
                            },
                            "reasons": {}
                        },
                        {
                            "code": "100.40",
                            "name": "Manual Review",
                            "label": "ManualReview",
                            "style": "ManualReview",
                            "checklist": [],
                            "transitions": [
                                "100.30",
                                "100.40",
                                "600.50",
                                "500.91",
                                "500.92",
                                "500.93"
                            ],
                            "activities": {
                                "Contacted but No Answer": "Contacted but no answer",
                                "Number Not Reachable": "Number not reachable",
                                "Notes": "Notes",
                                "Call from Borrower": "Call from borrower",
                                "Borrower Followup": "Borrower followup"
                            },
                            "reasons": {}
                        },
                        {
                            "code": "500.10",
                            "name": "OfferGeneration",
                            "label": "Offer Generation",
                            "style": "OfferGeneration",
                            "checklist": [
                                "ruleForUnderwritingChecklist"
                            ],
                            "transitions": [
                                "500.10",
                                "500.20",
                                "600.50",
                                "500.91",
                                "500.92",
                                "500.93"
                            ],
                            "activities": {
                                "Contacted but No Answer": "Contacted but no answer",
                                "Number Not Reachable": "Number not reachable",
                                "Notes": "Notes",
                                "Call from Borrower": "Call from borrower",
                                "Borrower Followup": "Borrower followup"
                            },
                            "reasons": {}
                        },
                        {
                            "code": "500.20",
                            "name": "Docs Requested",
                            "label": "DocsRequested",
                            "style": "DocsRequested",
                            "checklist": [],
                            "transitions": [
                                "500.20",
                                "500.30",
                                "600.50",
                                "500.40",
                                "500.91",
                                "500.92",
                                "500.93"
                            ],
                            "activities": {
                                "Contacted but No Answer": "Contacted but no answer",
                                "Number Not Reachable": "Number not reachable",
                                "Notes": "Notes",
                                "Call from Borrower": "Call from borrower",
                                "Borrower Followup": "Borrower followup"
                            },
                            "reasons": {}
                        },
                        {
                            "code": "500.30",
                            "name": "Committee Review",
                            "label": "CommitteeReview",
                            "style": "CommitteeReview",
                            "checklist": [
                                "docrequestedChecklist"
                            ],
                            "transitions": [
                                "500.30",
                                "500.20",
                                "600.50",
                                "500.91",
                                "500.92",
                                "500.93"
                            ],
                            "activities": {
                                "Contacted but No Answer": "Contacted but no answer",
                                "Number Not Reachable": "Number not reachable",
                                "Notes": "Notes",
                                "Call from Borrower": "Call from borrower",
                                "Borrower Followup": "Borrower followup"
                            },
                            "reasons": {}
                        },
                        {
                            "code": "500.40",
                            "name": "Agreement Docs Out",
                            "label": "AgreementDocsOut",
                            "style": "AgreementDocsOut",
                            "checklist": [
                                "docrequestedChecklist"
                            ],
                            "transitions": [
                                "500.50",
                                "500.60",
                                "600.50",
                                "500.91",
                                "500.92",
                                "500.93"
                            ],
                            "reasons": {},
                            "activities": {
                                "Contacted but No Answer": "Contacted but no answer",
                                "Number Not Reachable": "Number not reachable",
                                "Notes": "Notes",
                                "Call from Borrower": "Call from borrower",
                                "Borrower Followup": "Borrower followup"
                            }
                        },
                        {
                            "code": "500.60",
                            "name": "Funding Review",
                            "label": "Funding Review",
                            "style": "Funding Review",
                            "transitions": [
                                "500.60",
                                "500.70",
                                "600.50",
                                "500.91",
                                "500.92",
                                "500.93"
                            ],
                            "reasons": {},
                            "activities": {
                                "Contacted but No Answer": "Contacted but no answer",
                                "Number Not Reachable": "Number not reachable",
                                "Notes": "Notes",
                                "Call from Borrower": "Call from borrower",
                                "Borrower Followup": "Borrower followup"
                            }
                        },
                        {
                            "code": "500.70",
                            "name": "Approved For Funding",
                            "label": "Approved For Funding",
                            "style": "Approved For Funding",
                            "checklist": [
                                "approvedforfundingChecklist"
                            ],
                            "transitions": [
                                "500.70",
                                "500.80",
                                "600.50",
                                "500.91",
                                "500.92",
                                "500.93"
                            ],
                            "reasons": {},
                            "activities": {
                                "Contacted but No Answer": "Contacted but no answer",
                                "Number Not Reachable": "Number not reachable",
                                "Notes": "Notes",
                                "Call from Borrower": "Call from borrower",
                                "Borrower Followup": "Borrower followup"
                            }
                        },
                        {
                            "code": "500.80",
                            "name": "Funded",
                            "label": "Funded",
                            "style": "Funded",
                            "checklist": [],
                            "transitions": [
                                "500.80",
                                "500.91",
                                "500.92",
                                "500.93"
                            ],
                            "reasons": {}
                        },
                        {
                            "code": "500.90",
                            "name": "ACH Return",
                            "label": "ACH Return",
                            "style": "ACH Return",
                            "checklist": [],
                            "transitions": [
                                "500.90",
                                "500.10",
                                "500.91",
                                "500.92",
                                "500.93"
                            ],
                            "reasons": {}
                        },
                        {
                            "code": "600.50",
                            "name": "Other Lenders",
                            "label": "OtherLenders",
                            "style": "OtherLenders",
                            "checklist": [],
                            "transitions": [
                                "600.20",
                                "600.30",
                                "600.40"
                            ],
                            "reasons": {}
                        },
                        {
                            "code": "500.91",
                            "name": "Terminated At Funding",
                            "label": "Terminated At Funding",
                            "style": "Terminated At Funding ",
                            "transitions": [],
                            "reasons": {}
                        },
                        {
                            "code": "500.92",
                            "name": "Expired",
                            "label": "Expired",
                            "style": "Expired",
                            "transitions": [],
                            "reasons": {
                                "r8": "Expired 1"
                            }
                        },
                        {
                            "code": "500.93",
                            "name": "Declined",
                            "label": "Declined",
                            "style": "Declined",
                            "IsRejectionStatus": "true",
                            "checklist": [],
                            "transitions": [],
                            "reasons": {
                                "FCDecline": "FC 360 decline",
                                "MoreBankruptcies": "Merchant has two or more bankruptcies or a recent bankruptcy",
                                "IndustryNotSupported": "Industry not supported",
                                "BusinessRevenueLess": "Business Revenue is less than $100,000",
                                "TimeInBusinessLess": "Time in Business is less than 6 months",
                                "LowCreditScore": "Merchant's Personal Credit Score is below our minimum requirement",
                                "DataMerch": "Business has unfavorable background"
                            }
                        }
                    ]
                },
                {
                    "Name": "LocApprovalFlow",
                    "Description": "Approve Process for Application",
                    "DefaultInitiateCode": "700.10",
                    "checklist": [
                        {
                            "code": "docrequestedChecklist",
                            "title": "Verification completed",
                            "ruleName": "ruleForIdandBankVerificationChecklist",
                            "ruleVersion": "1.0"
                        },
                        {
                            "code": "approvedforfundingChecklist",
                            "title": "Verification completed",
                            "ruleName": "ruleForApprovedForFundingChecklist",
                            "ruleVersion": "1.0"
                        }
                    ],
                    "statuses": [
                        {
                            "code": "700.10",
                            "name": "OfferGeneration",
                            "label": "Offer Generation",
                            "style": "OfferGeneration",
                            "checklist": [
                                "ruleForUnderwritingChecklist"
                            ],
                            "transitions": [
                                "700.10",
                                "700.20",
                                "600.50",
                                "700.91",
                                "700.92",
                                "700.93"
                            ],
                            "activities": {
                                "Contacted but No Answer": "Contacted but no answer",
                                "Number Not Reachable": "Number not reachable",
                                "Notes": "Notes",
                                "Call from Borrower": "Call from borrower",
                                "Borrower Followup": "Borrower followup"
                            },
                            "reasons": {}
                        },
                        {
                            "code": "700.20",
                            "name": "Docs Requested",
                            "label": "DocsRequested",
                            "style": "DocsRequested",
                            "checklist": [],
                            "transitions": [
                                "700.20",
                                "700.30",
                                "700.40",
                                "600.50",
                                "700.91",
                                "700.92",
                                "700.93"
                            ],
                            "activities": {
                                "Contacted but No Answer": "Contacted but no answer",
                                "Number Not Reachable": "Number not reachable",
                                "Notes": "Notes",
                                "Call from Borrower": "Call from borrower",
                                "Borrower Followup": "Borrower followup"
                            },
                            "reasons": {}
                        },
                        {
                            "code": "700.30",
                            "name": "Committee Review",
                            "label": "CommitteeReview",
                            "style": "CommitteeReview",
                            "checklist": [
                                "docrequestedChecklist"
                            ],
                            "transitions": [
                                "700.30",
                                "700.20",
                                "600.50",
                                "700.91",
                                "700.92",
                                "700.93"
                            ],
                            "activities": {
                                "Contacted but No Answer": "Contacted but no answer",
                                "Number Not Reachable": "Number not reachable",
                                "Notes": "Notes",
                                "Call from Borrower": "Call from borrower",
                                "Borrower Followup": "Borrower followup"
                            },
                            "reasons": {}
                        },
                        {
                            "code": "700.40",
                            "name": "Agreement Docs Out",
                            "label": "AgreementDocsOut",
                            "style": "AgreementDocsOut",
                            "checklist": [
                                "docrequestedChecklist"
                            ],
                            "transitions": [
                                "700.40",
                                "700.50",
                                "700.60",
                                "600.50",
                                "700.91",
                                "700.92",
                                "700.93"
                            ],
                            "reasons": {},
                            "activities": {
                                "Contacted but No Answer": "Contacted but no answer",
                                "Number Not Reachable": "Number not reachable",
                                "Notes": "Notes",
                                "Call from Borrower": "Call from borrower",
                                "Borrower Followup": "Borrower followup"
                            }
                        },
                        {
                            "code": "700.50",
                            "name": "Funding Review",
                            "label": "Funding Review",
                            "style": "Funding Review",
                            "transitions": [
                                "700.50",
                                "700.60",
                                "600.50",
                                "700.91",
                                "700.92",
                                "700.93"
                            ],
                            "reasons": {},
                            "activities": {
                                "Contacted but No Answer": "Contacted but no answer",
                                "Number Not Reachable": "Number not reachable",
                                "Notes": "Notes",
                                "Call from Borrower": "Call from borrower",
                                "Borrower Followup": "Borrower followup"
                            }
                        },
                        {
                            "code": "700.60",
                            "name": "Open",
                            "label": "Open",
                            "style": "Open",
                            "checklist": [
                                "approvedforfundingChecklist"
                            ],
                            "transitions": [
                                "700.60",
                                "700.70",
                                "700.80",
                                "600.50",
                                "700.91",
                                "700.92",
                                "700.93"
                            ],
                            "reasons": {}
                        },
                        {
                            "code": "700.70",
                            "name": "hold",
                            "label": "hold",
                            "style": "hold",
                            "checklist": [],
                            "transitions": [
                                "700.70",
                                "700.60",
                                "700.80",
                                "700.91",
                                "700.92",
                                "700.93"
                            ],
                            "reasons": {
                                "r4": "Hold 1",
                                "r5": "Hold 2",
                                "r6": "Hold 3",
                                "r7": "Hold 4"
                            }
                        },
                        {
                            "code": "700.80",
                            "name": "Closed",
                            "label": "Closed",
                            "style": "Closed",
                            "checklist": [],
                            "transitions": [
                                "700.80"
                            ],
                            "reasons": {
                                "r4": "Closed 1",
                                "r5": "Closed 2",
                                "r6": "Closed 3",
                                "r7": "Closed 4"
                            }
                        },
                        {
                            "code": "700.91",
                            "name": "Terminated At Funding",
                            "label": "Terminated At Funding",
                            "style": "Terminated At Funding ",
                            "transitions": [],
                            "reasons": {}
                        },
                        {
                            "code": "700.92",
                            "name": "Expired",
                            "label": "Expired",
                            "style": "Expired",
                            "transitions": [],
                            "reasons": {
                                "r8": "Expired 1"
                            }
                        },
                        {
                            "code": "700.93",
                            "name": "Declined",
                            "label": "Declined",
                            "style": "Declined",
                            "IsRejectionStatus": "true",
                            "checklist": [],
                            "transitions": [],
                            "reasons": {
                                "FCDecline": "FC 360 decline",
                                "MoreBankruptcies": "Merchant has two or more bankruptcies or a recent bankruptcy",
                                "IndustryNotSupported": "Industry not supported",
                                "BusinessRevenueLess": "Business Revenue is less than $100,000",
                                "TimeInBusinessLess": "Time in Business is less than 6 months",
                                "LowCreditScore": "Merchant's Personal Credit Score is below our minimum requirement",
                                "DataMerch": "Business has unfavorable background"
                            }
                        },
                        {
                            "code": "600.50",
                            "name": "Other Lenders",
                            "label": "OtherLenders",
                            "style": "OtherLenders",
                            "checklist": [],
                            "transitions": [
                                "600.20",
                                "600.30",
                                "600.40"
                            ],
                            "reasons": {}
                        }
                    ]
                },
                {
                    "Name": "OtherLendersFlow",
                    "Description": "Other Lender Application",
                    "DefaultInitiateCode": "600.10",
                    "checklist": [],
                    "statuses": [
                        {
                            "code": "600.10",
                            "name": "Other Lenders",
                            "label": "OtherLenders",
                            "style": "OtherLenders",
                            "checklist": [],
                            "transitions": [
                                "600.20",
                                "600.30",
                                "600.40"
                            ],
                            "reasons": {}
                        }
                    ]
                }
            ]
        },
        "drawdown": {
            "StatusWorkFlows": [
                {
                    "Name": "DrawDownFlow",
                    "Description": "DrawDown Process",
                    "DefaultInitiateCode": "200.10",
                    "checklist": [
                        {
                            "code": "verification",
                            "title": "Verification completed",
                            "ruleName": "ruleForVerificationChecklist",
                            "ruleVersion": "1.0"
                        }
                    ],
                    "statuses": [
                        {
                            "code": "200.10",
                            "name": "Initiated",
                            "label": "DrawDown Initiated",
                            "style": "DrawDown Initiated",
                            "checklist": [],
                            "transitions": [
                                "200.20",
                                "300.10",
                                "300.20",
                                "200.40",
                                "200.50",
                                "200.60",
                                "200.70"
                            ],
                            "reasons": {}
                        },
                        {
                            "code": "200.20",
                            "name": "Verification",
                            "label": "DrawDown Verification",
                            "style": "DrawDown Verificatio",
                            "checklist": [],
                            "transitions": [
                                "200.30",
                                "200.40",
                                "200.50",
                                "200.60",
                                "300.10",
                                "300.20"
                            ],
                            "reasons": {}
                        },
                        {
                            "code": "200.30",
                            "name": "Review",
                            "label": "DrawDown Review",
                            "style": "DrawDown Review",
                            "checklist": [],
                            "transitions": [
                                "200.40",
                                "200.50",
                                "200.60",
                                "300.10",
                                "300.20"
                            ],
                            "reasons": {}
                        },
                        {
                            "code": "200.40",
                            "name": "Approved",
                            "label": "Approved",
                            "style": "Approved",
                            "checklist": [],
                            "transitions": [
                                "200.50",
                                "200.60",
                                "300.20"
                            ],
                            "reasons": {}
                        },
                        {
                            "code": "200.50",
                            "name": "Rejected",
                            "label": "DrawDown Rejected",
                            "style": "DrawDown Rejected",
                            "checklist": [],
                            "transitions": [
                                "300.20",
                                "200.10"
                            ],
                            "reasons": {
                                "r9": "Rejected 1",
                                "r10": "Rejected 2",
                                "r11": "Rejected 3",
                                "r12": "Rejected 4",
                                "EligibilityFailed": "Eligibility Failed"
                            }
                        },
                        {
                            "code": "200.60",
                            "name": "Funding",
                            "label": "DrawDown Funding",
                            "style": "DrawDown Funding",
                            "transitions": [
                                "200.70",
                                "200.80"
                            ],
                            "reasons": {},
                            "activities": {
                                "Contacted but No Answer": "Contacted but no answer",
                                "Number Not Reachable": "Number not reachable",
                                "Notes": "Notes",
                                "Call from Borrower": "Call from borrower",
                                "Borrower Followup": "Borrower followup"
                            }
                        },
                        {
                            "code": "200.70",
                            "name": "Funding Failed",
                            "label": "DrawDown Funding Failed",
                            "style": "DrawDown Funding Failed",
                            "transitions": [
                                "200.80"
                            ],
                            "reasons": {
                                "r9": "Funding Failed 1",
                                "r10": "Funding Failed 2",
                                "r11": "Funding Failed 3",
                                "r12": "Funding Failed 4"
                            },
                            "activities": {
                                "Contacted but No Answer": "Contacted but no answer",
                                "Number Not Reachable": "Number not reachable",
                                "Notes": "Notes",
                                "Call from Borrower": "Call from borrower",
                                "Borrower Followup": "Borrower followup"
                            }
                        },
                        {
                            "code": "200.80",
                            "name": "Funding Passed",
                            "label": "DrawDown Funding Passed",
                            "style": "DrawDown Funding Passed",
                            "transitions": [
                                "300.10"
                            ],
                            "reasons": {
                                "r9": "Funding Passed 1",
                                "r10": "Funding Passed 2",
                                "r11": "Funding Passed 3",
                                "r12": "Funding Passed 4"
                            },
                            "activities": {
                                "Contacted but No Answer": "Contacted but no answer",
                                "Number Not Reachable": "Number not reachable",
                                "Notes": "Notes",
                                "Call from Borrower": "Call from borrower",
                                "Borrower Followup": "Borrower followup"
                            }
                        },
                        {
                            "code": "300.10",
                            "name": "hold",
                            "label": "hold",
                            "style": "hold",
                            "checklist": [],
                            "transitions": [
                                "200.40",
                                "200.50",
                                "300.20"
                            ],
                            "reasons": {
                                "r9": "hold 1",
                                "r10": "hold 2",
                                "r11": "hold 3",
                                "r12": "hold 4"
                            }
                        },
                        {
                            "code": "300.20",
                            "name": "Cancelled",
                            "label": "Cancelled",
                            "style": "Cancelled",
                            "checklist": [],
                            "transitions": [],
                            "reasons": {
                                "r4": "Cancelled 1",
                                "r5": "Cancelled 2",
                                "r6": "Cancelled 3",
                                "r7": "Cancelled 4"
                            }
                        }
                    ]
                }
            ]
        },
        "loan": {
            "StatusWorkFlows": [
                {
                    "Name": "LoanWorkFlow",
                    "Description": "Loan Process",
                    "DefaultInitiateCode": "200.10",
                    "checklist": [
                        {}
                    ],
                    "statuses": [
                        {
                            "code": "200.10",
                            "name": "Created",
                            "label": "Loan Created",
                            "style": "Loan Created",
                            "checklist": [],
                            "transitions": [
                                "200.20"
                            ],
                            "reasons": {}
                        },
                        {
                            "code": "200.20",
                            "name": "InService",
                            "label": "Loan In Service",
                            "style": "Loan In-Service",
                            "checklist": [],
                            "transitions": [
                                "200.30",
                                "200.40",
                                "200.50",
                                "200.10"
                            ],
                            "SubWorkFlows": [
                                {
                                    "Name": "ChargeOff",
                                    "Description": "ChargeOff",
                                    "DefaultInitiateCode": "200.20.01",
                                    "CanMoveForward": true,
                                    "Status": [
                                        {
                                            "code": "200.20.01",
                                            "name": "Charge Off Initiated",
                                            "label": "Charge Off Initiated",
                                            "style": "ChargeOff",
                                            "transitions": [
                                                "200.20.02"
                                            ]
                                        },
                                        {
                                            "code": "200.20.02",
                                            "name": "Charge Off Review",
                                            "label": "Charge Off Review",
                                            "style": "ChargeOff",
                                            "transitions": [
                                                "200.20.03",
                                                "200.20.04"
                                            ]
                                        },
                                        {
                                            "code": "200.20.03",
                                            "name": "Approve Charge Off Request",
                                            "label": "Approve Charge Off Request",
                                            "style": "ChargeOff",
                                            "IsFlowComplete": true,
                                            "transitions": []
                                        },
                                        {
                                            "code": "200.20.04",
                                            "name": "Reject Charge Off Request",
                                            "label": "Reject Charge Off Request",
                                            "style": "ChargeOff",
                                            "IsFlowComplete": true,
                                            "transitions": []
                                        }
                                    ]
                                },
                                {
                                    "Name": "SellOff",
                                    "Description": "SellOff",
                                    "DefaultInitiateCode": "200.20.05",
                                    "CanMoveForward": true,
                                    "Status": [
                                        {
                                            "code": "200.20.05",
                                            "name": "Sell Off Initiated",
                                            "label": "Sell Off Initiated",
                                            "style": "SellOff",
                                            "transitions": [
                                                "200.20.06"
                                            ]
                                        },
                                        {
                                            "code": "200.20.06",
                                            "name": "Sell Off Review",
                                            "label": "Sell Off Review",
                                            "style": "SellOff",
                                            "transitions": [
                                                "200.20.07",
                                                "200.20.08"
                                            ]
                                        },
                                        {
                                            "code": "200.20.07",
                                            "name": "Approve Sold Off Request ",
                                            "label": "Approve Sold Off Request",
                                            "style": "SellOff",
                                            "IsFlowComplete": true,
                                            "transitions": []
                                        },
                                        {
                                            "code": "200.20.08",
                                            "name": "Reject Sold Off Request",
                                            "label": "Reject Sold Off Request",
                                            "style": "SellOff",
                                            "IsFlowComplete": true,
                                            "transitions": []
                                        }
                                    ]
                                }
                            ],
                            "reasons": {}
                        },
                        {
                            "code": "200.30",
                            "name": "PaidOff",
                            "label": "Loan Paid Off",
                            "style": "Loan PaidOff",
                            "checklist": [],
                            "transitions": [
                                "200.60"
                            ],
                            "reasons": {}
                        },
                        {
                            "code": "200.40",
                            "name": "ChargedOff",
                            "label": "Loan Charged Off",
                            "style": "Loan ChargeOff",
                            "checklist": [],
                            "transitions": [
                                "200.20",
                                "200.60"
                            ],
                            "reasons": {}
                        },
                        {
                            "code": "200.50",
                            "name": "SoldOff",
                            "label": "Loan Sold Off",
                            "style": "Loan SellOff",
                            "checklist": [],
                            "transitions": [
                                "200.60"
                            ],
                            "reasons": {}
                        },
                        {
                            "code": "200.60",
                            "name": "Closed",
                            "label": "Closed",
                            "style": "Closed",
                            "transitions": [],
                            "reasons": {
                                "Paidoff": "Paid off",
                                "Charge-off": "Charged off",
                                "Cancelled": "Cancelled",
                                "Renewed": "Renewed"
                            },
                            "activities": {}
                        }
                    ]
                }
            ]
        }
    }
}