{
  "events": [
    {
      "EventName": "DatamerchSearchMerchantRequested"
    },
    {
      "EventName": "PlaidGetAccountsRequested"
    },
    {
      "EventName": "PlaidGetAllBanksRequested"
    },
    {
      "EventName": "PlaidGetExchangeTokenRequested"
    },
    {
      "EventName": "PlaidGetRiskDataRequested"
    },
    {
      "EventName": "PlaidGetTransactionsAndAccountsRequested"
    },
    {
      "EventName": "PlaidCalculateCashFlowRequested"
    },
    {
      "EventName": "YelpServiceGetPhoneDetailsRequested"
    },
    {
      "EventName": "YelpServiceSerchDetailsRequested"
    },
    {
      "EventName": "PaynetSearchCompanyRequested"
    },
    {
      "EventName": "PaynetGetCompanyReportRequested"
    },
    {
      "EventName": "BizApiSearchSicCodeRequested"
    },
    {
      "EventName": "WhitePagesIdentityCheckRequested"
    },
    {
      "EventName": "EmbeddedViewGenerated"
    }
  ]
}