{
    "Transactions": {
        "loanonbord": "Loan onboarded",
        "newdrawdown": "New draw",
        "newschedule": "New schedule created",
        "reversepayment": "Reverse payment",
        "paymentreceived": "Payment received",
        "chargeoff": "Charged off",
        "soldoff": "Sold off",
        "feeapplied": "Fees applied-",
        "feepaid": "Fees paid-",
        "reversefee" : "Reverse fee",
        "excesspayment" : "Refund excess payment"
    },
    "Resolver": [
        {
            "Parameter": "DPD",
            "LambdaExpression": "(int x) => x > 0 && x <= 30",
            "Event": "DPD_1_DAYS"
        },
        {
            "Parameter": "DPD",
            "LambdaExpression": "(int x) => x > 30 && x <= 60",
            "Event": "DPD_30_DAYS"
        },
        {
            "Parameter": "DPD",
            "LambdaExpression": "(int x) => x > 60 && x <= 90",
            "Event": "DPD_60_DAYS"
        },
        {
            "Parameter": "DPD",
            "LambdaExpression": "(int x) => x > 90 && x <= 120",
            "Event": "DPD_90_DAYS"
        },
        {
            "Parameter": "DPD",
            "LambdaExpression": "(int x) => x > 120 && x <= 150",
            "Event": "DPD_120_DAYS"
        },
        {
            "Parameter": "DPD",
            "LambdaExpression": "(int x) => x > 150 && x <= 180",
            "Event": "DPD_150_DAYS"
        },
        {
            "Parameter": "DPD",
            "LambdaExpression": "(int x) => x > 180",
            "Event": "DPD_180_DAYS"
        },
        {
            "Parameter": "DSLA",
            "LambdaExpression": "(int x) => x == 30 ",
            "Event": "DSLA_30_DAYS"
        },
        {
            "Parameter": "DSLA",
            "LambdaExpression": "(int x) => x == 60",
            "Event": "DSLA_60_DAYS"
        },
        {
            "Parameter": "DSLA",
            "LambdaExpression": "(int x) => x == 90",
            "Event": "DSLA_90_DAYS "
        }
    ]
}