{
    "entities": {
        "loan": [
            {
                "EventName": "PaymentMissed",
                "FlagDetail": {
                    "ColorName": "Red",
                    "ColorCode": "#FF0000"
                },
                "Description": "Missed Payment",
                "Action": [
                    "Active",
                    "Dismiss",
                    "Acknowledge",
                    "AutoPay Stop",
                    "AutoAcrrual Stop",
                    "Apply Fees"
                ],
                "Tags": []
            },
            {
                "EventName": "FailedPayment",
                "FlagDetail": {
                    "ColorName": "Red",
                    "ColorCode": "#FF0000"
                },
                "Description": "Failed Payment",
                "Action": [
                    "Active",
                    "Dismiss",
                    "Acknowledge",
                    "AutoPay Stop",
                    "AutoAcrrual Stop",
                    "Apply Fees"
                ],
                "Tags": []
            },
            {
                "EventName": "PaidOff",
                "FlagDetail": {
                    "ColorName": "Green",
                    "ColorCode": "#008000"
                },
                "Description": "Paid Off",
                "Action": [
                    "Active",
                    "Dismiss",
                    "Acknowledge",
                    "Send mail to borrower",
                    "Close Loan"
                ],
                "Tags": []
            },
            {
                "EventName": "LoanProcessSubWorkFlow",
                "FlagDetail": {
                    "ColorName": "Yellow",
                    "ColorCode": "#FFFF00"
                },
                "Description": "{Data.NewStatusName} sub workflow initiated",
                "Action": [
                    "Active",
                    "Dismiss",
                    "Acknowledge"
                ],
                "Tags": []
            },
            {
                "EventName": "LoanSubStatusChanged",
                "FlagDetail": {
                    "ColorName": "Orange",
                    "ColorCode": "#FFA500"
                },
                "Description": "{Data.NewSubStatusName}",
                "Action": [
                    "Active",
                    "Dismiss",
                    "Acknowledge"
                ],
                "Tags": []
            },
            {
                "EventName": "ExcessPaymentRefunded",
                "FlagDetail": {
                    "ColorName": "Pink",
                    "ColorCode": "#FFC0CB"
                },
                "Description": "Payment Refunded",
                "Action": [
                    "Active",
                    "Dismiss",
                    "Acknowledge",
                    "Send mail to borrower"
                ],
                "Tags": []
            },
            {
                "EventName": "PaymentReceived",
                "FlagDetail": {
                    "ColorName": "Green",
                    "ColorCode": "#008000"
                },
                "Description": "Payment Received",
                "Action": [
                    "Active",
                    "Dismiss",
                    "Acknowledge",
                    "Auto-pay resume",
                    "Accrual resume",
                    "Reverse Payment"
                ],
                "Tags": []
            },
            {
                "EventName": "ManualFactVerificationInitiated",
                "FlagDetail": {
                    "ColorName": "Orange",
                    "ColorCode": "#FFA500"
                },
                "Description": "{Data.Fact} verification initiated",
                "Action": [
                    "Active",
                    "Dismiss",
                    "Acknowledge",
                    "Upload Docs"
                ],
                "Tags": []
            },
            {
                "EventName": "LoanModActivated",
                "FlagDetail": {
                    "ColorName": "Yellow",
                    "ColorCode": "#FFFF00"
                },
                "Description": "Loan Mod Activated",
                "Action": [
                    "Active",
                    "Dismiss",
                    "Acknowledge",
                    "Send mail to borrower",
                    "Initiate Charge off Process",
                    "Initiate Sell off Process"
                ],
                "Tags": []
            },
            {
                "EventName": "DrawdownCreated",
                "FlagDetail": {
                    "ColorName": "Pink",
                    "ColorCode": "#FFC0CB"
                },
                "Description": "New draw",
                "Action": [
                    "Active",
                    "Dismiss",
                    "Acknowledge"
                ],
                "Tags": []
            }
        ]
    }
}