{
	"name": "loanagreement",
	"title": "Fast Capital 360 PrePay Addendum",
	"format": "Html",
	"body": "{{body}}",
	"version": "1.0",
	"properties": {
		"pdfSettings": {
			"pageSize": "A4",
			"pageWidth": "21cm",
			"pageHeight": "29.7cm",
			"orientation": "portrait",
			"dpi": 300,
			"imageQuality": 90,
			"marginTop": "10",
			"marginBottom": "10",
			"marginLeft": "10",
			"marginRight": "10"
		},
		"signature": {
			"ReturnUrl": "",
			"BrandId": "",
			"DocumentName": "Fast Capital 360 Merchant Agreement",
			"EmailSubject": "Fast Capital 360 Merchant Agreement",
			"SignerConfiguration": [{
					"RoutingOrder": 1,
					"Tabs": [{
						"TabType": "SignHere",
						"Configuration": {
							"AnchorCaseSensitive": true,
							"AnchorMatchWholeWord": true,
							"AnchorString": "PRESTELAA_SIGNATURE",
							"AnchorXOffset": 0,
							"AnchorYOffset": 0,
							"Name": "SignHere",
							"PageNumber": 1,
							"TabOrder": 1,
							"XPosition": 0,
							"YPosition": 0
						}
					}]
				},
				{
					"RoutingOrder": 2,
					"Tabs": [{
						"TabType": "SignHere",
						"Configuration": {
							"AnchorCaseSensitive": true,
							"AnchorMatchWholeWord": true,
							"AnchorString": "SIGNATUREOWNER1",
							"AnchorXOffset": 0,
							"AnchorYOffset": 0,
							"Name": "SignHere",
							"PageNumber": 1,
							"TabOrder": 1,
							"XPosition": 0,
							"YPosition": 0
						}
					},
					{
						"TabType": "DateSigned",
						"Configuration": {
							"AnchorCaseSensitive": true,
							"AnchorMatchWholeWord": true,
							"AnchorString": "SIGNED_DATE1",
							"AnchorXOffset": 0,
							"AnchorYOffset": 0,
							"Name": "DateSigned",
							"PageNumber": 6,
							"TabOrder": 1,
							"XPosition": 0,
							"YPosition": 0
						}
					}
					]
				},
				{
					"RoutingOrder": 3,
					"Tabs": [{
						"TabType": "SignHere",
						"Configuration": {
							"AnchorCaseSensitive": true,
							"AnchorMatchWholeWord": true,
							"AnchorString": "SIGNATUREOWNER2",
							"AnchorXOffset": 0,
							"AnchorYOffset": 0,
							"Name": "SignHere",
							"PageNumber": 1,
							"TabOrder": 1,
							"XPosition": 0,
							"YPosition": 0
						}
					},
					{
							"TabType": "DateSigned",
							"Configuration": {
								"AnchorCaseSensitive": true,
								"AnchorMatchWholeWord": true,
								"AnchorString": "SIGNED_DATE2",
								"AnchorXOffset": 0,
								"AnchorYOffset": 0,
								"Name": "DateSigned",
								"PageNumber": 6,
								"TabOrder": 1,
								"XPosition": 0,
								"YPosition": 0
							}
					}]
				}
			],
			"EventConfigurations": {
				"ListnerUrl": "https://www.google.co.in",
				"GetDocumentFields": true,
				"GetDocuments": false,
				"GetRejectionReason": true,
				"EnableLogging": true,
				"RecipientEvent": [{
					"EventType": "Completed",
					"GetDocumetOnEvent": false
				}]
			},
			"ExpirationSetting": {
				"ExpireAfterDays": 2,
				"WarningExpireBeforeDays": 1
			},
			"ReminderSetting": {
				"FirstReminderAfterDays": 1,
				"ReminderInterval": 2
			}
		}
	}
}