{
    "searchname": "AccountTransaction",
    "searchFilterView": [],
    "inTagsSearch": [],
    "notInTagsSearch": [],
    "operator": "or",
    "projections": {
        "_id": 0,
        "TransactionDate": 1,
        "Description": 1,
        "RunningBalance": 1,
        "Amount": 1,
        "TransactionOn": 1
    },
    "sorts": {
        "TransactionOn": -1
    }
}