{
  "name": "loanagreement",
  "title": "Fast Capital 360 LOC Agreement",
  "format": "Html",
  "body": "{{body}}",
  "version": "1.0",
  "properties": {
    "pdfSettings": {
      "pageSize": "A4",
      "pageWidth": "21cm",
      "pageHeight": "29.7cm",
      "orientation": "portrait",
      "dpi": 300,
      "imageQuality": 90,
      "marginTop": "10",
      "marginBottom": "10",
      "marginLeft": "10",
      "marginRight": "10"
    },
    "signature": {
      "ReturnUrl": "",
      "BrandId": "",
      "DocumentName": "Fast Capital 360 LOC Loan Agreement",
      "SignerConfiguration": [
        {
          "RoutingOrder": 1,
		  "RecipientId":1000,
          "Tabs": [
		    {
              "TabType": "SignHere",
              "Configuration": {
                "AnchorCaseSensitive": true,
                "AnchorMatchWholeWord": true,
                "AnchorString": "MERCHANTSIGNATURE",
                "AnchorXOffset": 0,
                "AnchorYOffset": 0,
                "Name": "SignHere",
                "PageNumber": 6,
                "TabOrder":2,
                "XPosition": 0,
                "YPosition": 0
              }
            },
            {
              "TabType": "SignHere",
              "Configuration": {
                "AnchorCaseSensitive": true,
                "AnchorMatchWholeWord": true,
                "AnchorString": "SIGNATUREOWNER1",
                "AnchorXOffset": 0,
                "AnchorYOffset": 0,
                "Name": "SignHere",
                "PageNumber": 6,
                "TabOrder":2,
                "XPosition": 0,
                "YPosition": 0
              }
            },
			{
              "TabType": "SignHere",
              "Configuration": {
                "AnchorCaseSensitive": true,
                "AnchorMatchWholeWord": true,
                "AnchorString": "AUTHSGNATURE",
                "AnchorXOffset": 0,
                "AnchorYOffset": 0,
                "Name": "SignHere",
                "PageNumber": 6,
                "TabOrder":2,
                "XPosition": 0,
                "YPosition": 0
              }
            },
			{
              "TabType": "SignHere",
              "Configuration": {
                "AnchorCaseSensitive": true,
                "AnchorMatchWholeWord": true,
                "AnchorString": "VERIFYSIGNATURE",
                "AnchorXOffset": 0,
                "AnchorYOffset": 0,
                "Name": "SignHere",
                "PageNumber": 6,
                "TabOrder":2,
                "XPosition": 0,
                "YPosition": 0
              }
            },
			{
			  "TabType": "InitialHere",
              "Configuration": {
                "AnchorCaseSensitive": true,
                "AnchorMatchWholeWord": true,
                "AnchorString": "INITIAL_SIGNATURE",
                "AnchorXOffset": 0,
                "AnchorYOffset": 0,
                "Name": "InitialSignature",
                "PageNumber": 1,
                "TabOrder": 1,
                "XPosition": 0,
                "YPosition": 0
              }
			},
			{
			  "TabType": "Custom",
			  "CustomTabType": "Text",
              "Configuration": {
                "AnchorCaseSensitive": true,
                "AnchorMatchWholeWord": true,
                "AnchorString": "DEPOSITORY_NAME",
                "AnchorXOffset": 0,
                "AnchorYOffset": 0,
                "Name": "DepositoryName",
                "PageNumber": 6,
                "TabOrder": 1,
                "XPosition": 0,
                "YPosition": 0
              }
			},
			{
			  "TabType": "Custom",
			  "CustomTabType": "Text",
              "Configuration": {
                "AnchorCaseSensitive": true,
                "AnchorMatchWholeWord": true,
                "AnchorString": "OWNER_NAME",
                "AnchorXOffset": 0,
                "AnchorYOffset": 0,
                "Name": "OWNER",
                "PageNumber": 6,
                "TabOrder": 1,
                "XPosition": 0,
                "YPosition": 0
              }
			},
			{
			  "TabType": "Custom",
			  "CustomTabType": "Text",
              "Configuration": {
                "AnchorCaseSensitive": true,
                "AnchorMatchWholeWord": true,
                "AnchorString": "ROUTING_NUMBER",
                "AnchorXOffset": 0,
                "AnchorYOffset": 0,
                "Name": "RoutingNumber",
                "PageNumber": 6,
                "TabOrder": 1,
                "XPosition": 0,
                "YPosition": 0
              }
			},
			{
			  "TabType": "Custom",
			  "CustomTabType": "Text",
              "Configuration": {
                "AnchorCaseSensitive": true,
                "AnchorMatchWholeWord": true,
                "AnchorString": "ACCOUNT_NUMBER",
                "AnchorXOffset": 0,
                "AnchorYOffset": 0,
                "Name": "AccountNumber",
                "PageNumber": 6,
                "TabOrder": 1,
                "XPosition": 0,
                "YPosition": 0
              }
			},
			{
			  "TabType": "Custom",
			  "CustomTabType": "Text",
              "Configuration": {
                "AnchorCaseSensitive": true,
                "AnchorMatchWholeWord": true,
                "AnchorString": "BANKPORTAL_WEBSITE",
                "AnchorXOffset": 0,
                "AnchorYOffset": 0,
                "Name": "BankPortalWebsite",
                "PageNumber": 6,
                "TabOrder": 1,
                "XPosition": 0,
                "YPosition": 0
              }
			},
			{
			  "TabType": "Custom",
			  "CustomTabType": "Text",
              "Configuration": {
                "AnchorCaseSensitive": true,
                "AnchorMatchWholeWord": true,
                "AnchorString": "USERNAME",
                "AnchorXOffset": 0,
                "AnchorYOffset": 0,
                "Name": "Username",
                "PageNumber": 6,
                "TabOrder": 1,
                "XPosition": 0,
                "YPosition": 0
              }
			},
			{
			  "TabType": "Custom",
			  "CustomTabType": "Text",
              "Configuration": {
                "AnchorCaseSensitive": true,
                "AnchorMatchWholeWord": true,
                "AnchorString": "PASSWORD",
                "AnchorXOffset": 0,
                "AnchorYOffset": 0,
                "Name": "Password",
                "PageNumber": 6,
                "TabOrder": 1,
                "XPosition": 0,
                "YPosition": 0
              }
			},
			{
			  "TabType": "Custom",
			  "CustomTabType": "Text",
              "Configuration": {
                "AnchorCaseSensitive": true,
                "AnchorMatchWholeWord": true,
                "AnchorString": "SECURITY_QUESTION_1",
                "AnchorXOffset": 0,
                "AnchorYOffset": 0,
                "Name": "Question1",
                "PageNumber": 6,
                "TabOrder": 1,
                "XPosition": 0,
                "YPosition": 0
              }
			},
			{
			  "TabType": "Custom",
			  "CustomTabType": "Text",
              "Configuration": {
                "AnchorCaseSensitive": true,
                "AnchorMatchWholeWord": true,
                "AnchorString": "SECURITY_QUESTION_2",
                "AnchorXOffset": 0,
                "AnchorYOffset": 0,
                "Name": "Queston2",
                "PageNumber": 6,
                "TabOrder": 1,
                "XPosition": 0,
                "YPosition": 0
              }
			},
			{
			  "TabType": "Custom",
			  "CustomTabType": "Text",
              "Configuration": {
                "AnchorCaseSensitive": true,
                "AnchorMatchWholeWord": true,
                "AnchorString": "SECURITY_QUESTION_3",
                "AnchorXOffset": 0,
                "AnchorYOffset": 0,
                "Name": "Question3",
                "PageNumber": 6,
                "TabOrder": 1,
                "XPosition": 0,
                "YPosition": 0
              }
			},
			{
			  "TabType": "Custom",
			  "CustomTabType": "Text",
              "Configuration": {
                "AnchorCaseSensitive": true,
                "AnchorMatchWholeWord": true,
                "AnchorString": "OTHER_AUTH_INFO",
                "AnchorXOffset": 0,
                "AnchorYOffset": 0,
                "Name": "OtherInformation",
                "PageNumber": 6,
                "TabOrder": 1,
                "XPosition": 0,
                "YPosition": 0
              }
			},
			{
			  "TabType": "DateSigned",
              "Configuration": {
                "AnchorCaseSensitive": true,
                "AnchorMatchWholeWord": true,
                "AnchorString": "SIGNED_DATE",
                "AnchorXOffset": 0,
                "AnchorYOffset": 0,
                "Name": "DateSigned",
                "PageNumber": 6,
                "TabOrder": 1,
                "XPosition": 0,
                "YPosition": 0
              }
			}
          ]
        },
        {
          "RoutingOrder": 2,
		  "RecipientId":1001,
          "Tabs": [
            {
              "TabType": "SignHere",
              "Configuration": {
                "AnchorCaseSensitive": true,
                "AnchorMatchWholeWord": true,
                "AnchorString": "SIGNATUREOWNER2",
                "AnchorXOffset": 0,
                "AnchorYOffset": 0,
                "Name": "SignHere",
                "PageNumber": 1,
                "TabOrder": 1,
                "XPosition": 0,
                "YPosition": 0
              }
            },
			{
			  "TabType": "DateSigned",
              "Configuration": {
                "AnchorCaseSensitive": true,
                "AnchorMatchWholeWord": true,
                "AnchorString": "SIGNED_DATE2",
                "AnchorXOffset": 0,
                "AnchorYOffset": 0,
                "Name": "DateSigned",
                "PageNumber": 6,
                "TabOrder": 1,
                "XPosition": 0,
                "YPosition": 0
              }
			}
          ]
        },
		{

        "RoutingOrder": 3,
        "RecipientId": "1003",
         "Tabs": [
                  {
                    "TabType": "SignHere",
                     "Configuration": {
                        "AnchorCaseSensitive": true,
                        "AnchorMatchWholeWord": true,
                        "AnchorString": "PRESTELLA_SIGNATURE",
                        "AnchorXOffset": 0,
                        "AnchorYOffset": 0,
                        "Name": "SignHere",
                        "TabOrder": 1,
                        "PageNumber": 1,
                        "XPosition": 0,
                        "YPosition": 0
                    }
                    },
                    {
                            "TabType": "DateSigned",
                            "Configuration": {
                                "AnchorCaseSensitive": true,
                                "AnchorMatchWholeWord": true,
                                "AnchorString": "DateSignedLender",
                                "AnchorXOffset": 0,
                                "AnchorYOffset": 0,
                                "Name": "DateSigned",
                                "TabOrder": 1,
                                "PageNumber": 1,
                                "XPosition": 0,
                                "YPosition": 0
                            }
                        }
                    ]
                		
		}
      ],
      "EventConfigurations": {
        "ListnerUrl": "",
        "GetDocumentFields": true,
        "GetDocuments": false,
        "GetRejectionReason": true,
        "EnableLogging": true,
        "RecipientEvent": [
          {
            "EventType": "Completed",
            "GetDocumetOnEvent": false
          }
        ]
      },
      "ExpirationSetting": {
        "ExpireAfterDays": 2,
        "WarningExpireBeforeDays": 1
      },
      "ReminderSetting": {
        "FirstReminderAfterDays": 1,
        "ReminderInterval": 2
      }
    }
  }
}