{
    "accountspayable": "Accounts payable – All open payables printout",
    "accountsreceivables": "Accounts receivables – Outstanding printout",
    "bankstatement": "Bank Statements – Payback Months",
    "businesslicense": "Business license",
    "cojnotarized": "COJ – Notarized and overnighted",
    "cojsigned": "COJ – Signed and notarized",
    "contractviadocusign": "Contract via DocuSign",
    "contractviasignature": "Contract via signature",
    "creditcardprocessingstatements": "Credit card processing statements",
    "driverlicense": "Drivers license",
    "fundingapprovaldocument": "Funding approval document",
    "monthtodate": "Month-to-date bank activity printout",
    "ownerconsent": "Consent For Owner",
    "payoffletters": "Payoff letters from existing funders",
    "profitandlossprioryear": "Profit and loss balance sheet – Prior year",
    "profitandlossyeartodate": "Profit and loss balance sheet – Year to date",
    "taxlieninfo": "Tax lien info",
    "taxreturnpersonal": "Tax return – personal",
    "taxreturnpreviousyears": "Tax return – previous years",
    "taxreturnrecentyear": "Tax return – most recent year of incorporation",
    "upcomingcontracts": "Upcoming contracts",
    "voidedcheck": "Void check for business checking account",
    "zerobalanceletter": "Zero-balance letter",
    "cashflow": "Cashflow",
    "doctobesign": "Document to be sign",
    "paynet": "Paynet",
    "proofofpropertyownership": "Proof Of Property Ownership",
    "rentverification": "Rent Verification",
    "loanagreement": "Loan Agreement",
    "application": "Application",
    "applicationconsent": "Application Consent",
    "bankverification": "Bank Verification",
    "other": "Other",
    "passport": "Passport",
    "photoid": "Photo ID",
    "signeddocument": "Signed Document",
    "taxdeclaration": "Tax Declaration",
    "thirdparty": "Third Party",
    "uiddocument": "ID Document",
    "utilitybill": "Utility Bill",
    "loanapplication": "Loan Application"
}