{
  "apiBaseUrl": "https://proapi.whitepages.com/",
  "leadVerifyApiUrl": "/3.3/lead_verify.json",
  "leadVerifyApiKey": "76f6edf970d547eea83a9f2bead232e6",
  "IdentityCheckApiUrl": "/3.2/identity_check.json",
  "IdentityCheckApiKey": "sakulichtestkeypft1"
}