{
  "personalReportConfiguration": {
    "NetConnectSubscriber": "capitalalliance_demo",
    "NetConnectPassword": "Sigma@123",
    "NetConnectRequestUrl": "http://{{external_ip}}:7022/personal",
    "Eai": "OXOEYRDW",
    "DbHost": "STAR",
    "ReferenceId": "CAGPP",
    "Preamble": "TBD1",
    "OpInitials": "OP",
    "SubCode": "1940067",
    "ArfVersion": "07",
    "Verbose": "Y",
    "Demographics": "Y",
    "Y2K": "Y",
    "Segment130": "Y",
    "VendorNumber": "183",
    "VendorVersion": "1",
    "UseProxy": false
  },
  "businessReportConfiguration": {
    "NetConnectSubscriber": "capitalalliance_bisdemo",
    "NetConnectPassword": "Sigma@123",
    "NetConnectRequestUrl": "http://{{external_ip}}:7022/business",
    "Eai": "OXOEYRDW",
    "DbHost": "BISTEST",
    "ReferenceId": null,
    "Preamble": "TBD1",
    "OpInitials": "OP",
    "SubCode": "0487130",
    "ArfVersion": "07",
    "VendorNumber": "BIS183",
    "VendorVersion": null,
    "BusinessVerbose": "Y",
    "UseProxy": false
  }
}