{
    "aC&warmairheating&commercial/industrialrefrigequipmfg": "3585",
    "aC&warmairheating&commercial/industrialrefrigequipmfg(p": "3443",
    "abrasiveproductmfg": "3291",
    "abrasiveproducts": "3291",
    "adhesivemfg": "2891",
    "adhesives&sealants": "2891",
    "agriculturalchemicals": "287",
    "agriculturalchemicals,n.e.c.": "2879",
    "air&gascompressormfg": "3563",
    "air&gascompressors": "3563",
    "aircraft": "3721",
    "aircraftandparts": "372",
    "aircraftengine&enginepartsmfg": "3724",
    "aircraftengines&engineparts": "3724",
    "aircraftmfg": "3721",
    "aircraftparts&equipment,n.e.c.": "3728",
    "airpurificationequipmentmfg": "3564",
    "alkalies&chlorine": "2812",
    "alkalies&chlorinemfg": "2812",
    "allotherbasicinorganicchemicalmfg(pt)": "2819",
    "allotherbasicinorganicchemicalmfg(pt)2": "2869",
    "allotherbasicorganicchemicalmfg(pt)": "2869",
    "allotherbasicorganicchemicalmfg(pt)2": "2899",
    "allotherconvertedpaperproductmfg": "2675",
    "allotherconvertedpaperproductmfg(pt)": "3999",
    "allotherconvertedpaperproductmfg(pt)2": "2679",
    "allothercut&sewapparelmfg(pt)": "2389",
    "allothercut&sewapparelmfg(pt)5": "2339",
    "allothercut&sewapparelmfg(pt)9": "2329",
    "allotherheavyconstruction(pt)": "1629",
    "allotherindustrialmachinerymfg": "3559",
    "allotherindustrialmachinerymfg(pt)": "3639",
    "allotherleathergoodmfg(pt)": "3131",
    "allotherleathergoodmfg(pt)1": "3199",
    "allothermetaloremining": "1099",
    "allothermiscellaneouschemicalproduct&preparationmfg(pt)": "3999",
    "allothermiscellaneouschemicalproduct&preparationmfg(pt)2": "2899",
    "allothermiscellaneouschemicalproduct&preparationmfg(pt)5": "2819",
    "allothermiscellaneouselectricalequipment&componentmfg(pt)": "3699",
    "allothermiscellaneousfabricatedmetalproductmfg": "3499",
    "allothermiscellaneousfabricatedmetalproductmfg(pt)": "3999",
    "allothermiscellaneousfabricatedmetalproductmfg(pt)1": "3537",
    "allothermiscellaneousfabricatedmetalproductmfg(pt)12": "3432",
    "allothermiscellaneousfabricatedmetalproductmfg(pt)2": "3291",
    "allothermiscellaneousfabricatedmetalproductmfg1": "3494",
    "allothermiscellaneousfabricatedmetalproductmfg6": "3497",
    "allothermiscellaneousfoodmfg(pt)": "2099",
    "allothermiscellaneousfoodmfg(pt)1": "2015",
    "allothermiscellaneousfoodmfg(pt)2": "2032",
    "allothermiscellaneousfoodmfg(pt)4": "2087",
    "allothermiscellaneousgeneral-purposemachinerymfg": "3569",
    "allothermiscellaneousgeneral-purposemachinerymfg(pt)": "3599",
    "allothermiscellaneousmfg(pt)": "2499",
    "allothermiscellaneousnonmetallicmineralproductmfg(pt)": "3272",
    "allothermiscellaneousnonmetallicmineralproductmfg(pt)1": "3299",
    "allothermiscellaneousnonmetallicmineralproductmfg(pt)11": "3292",
    "allothermiscellaneoustextileproductmills": "2399",
    "allothermiscellaneoustextileproductmills(pt)": "3999",
    "allothermiscellaneoustextileproductmills(pt)1": "2299",
    "allothermiscellaneoustextileproductmills(pt)22": "2395",
    "allothermiscellaneoustextileproductmills2": "2396",
    "allothermiscellaneouswoodproductmfg": "2429",
    "allothermiscellaneouswoodproductmfg(pt)": "3999",
    "allothermiscellaneouswoodproductmfg(pt)1": "3131",
    "allothermiscellaneouswoodproductmfg(pt)6": "2499",
    "allothermiscellaneouswoodproductmfg1": "2421",
    "allothermotorvehiclepartsmfg(pt)": "3714",
    "allothernonmetallicmineralmining": "1499",
    "allotherpetroleum&coalproductsmfg(pt)": "2999",
    "allotherpetroleum&coalproductsmfg(pt)2": "3312",
    "allotherplasticsproductmfg(pt)": "3999",
    "allotherplasticsproductmfg(pt)2": "3089",
    "allotherpublishers": "2741",
    "allotherrubberproductmfg": "3069",
    "allotherspecialtradecontractors": "1799",
    "allothertransportationequipmentmfg": "3799",
    "aluminarefining": "2819",
    "aluminumdie-castingfoundries": "3363",
    "aluminumdie-castings": "3363",
    "aluminumextrudedproductmfg": "3354",
    "aluminumextrudedproducts": "3354",
    "aluminumfoundries": "3365",
    "aluminumfoundries(exceptdie-casting)": "3365",
    "aluminumrolling&drawing,n.e.c.": "3355",
    "aluminumsheet,plate,&foil": "3353",
    "aluminumsheet,plate,&foilmfg": "3353",
    "ammunition(exceptsmallarms)mfg": "3483",
    "ammunition,exceptsmallarms,n.e.c.": "3483",
    "analyticalinstruments": "3826",
    "analyticallaboratoryinstrumentmfg(pt)": "3826",
    "animal&marinefats&oils": "2077",
    "animal(exceptpoultry)slaughtering(pt)": "2048",
    "animal(exceptpoultry)slaughtering(pt)1": "2011",
    "anthracitemining1": "123",
    "anthracitemining2": "1231",
    "anthracitemining3": "1231",
    "apparel&accessories,n.e.c.": "2389",
    "apparelandothertextileproducts": "23",
    "apparelbelts": "2387",
    "architecturalmetalwork": "3446",
    "asbestosabatement&leadpaintremoval": "1799",
    "asbestosproducts": "3292",
    "asphaltfelts&coatings": "2952",
    "asphaltpavingandroofingmaterials": "295",
    "asphaltpavingmixture&blockmfg": "2951",
    "asphaltpavingmixtures&blocks": "2951",
    "asphaltshingle&coatingmaterialsmfg": "2952",
    "audio&videoequipmentmfg": "3651",
    "automaticenvironmentalcontrolmfg": "3822",
    "automaticmerchandisingmachines": "3581",
    "automaticvendingmachinemfg": "3581",
    "automobilemfg": "3711",
    "automotive&appareltrimmings": "2396",
    "automotivestampings": "3465",
    "bags-plastics,laminated,&coated": "2673",
    "bags-uncoatedpaper&multiwall": "2674",
    "bakeryproducts": "205",
    "ball&rollerbearingmfg": "3562",
    "ball&rollerbearings": "3562",
    "bareprintedcircuitboardmfg": "3672",
    "beetsugar": "2063",
    "beetsugarmfg": "2063",
    "beverages": "208",
    "biologicalproduct(exceptdiagnostic)mfg": "2836",
    "biologicalproducts,exceptdiagnostic": "2836",
    "bituminouscoal&lignite-surface": "1221",
    "bituminouscoal&lignitesurfacemining": "1221",
    "bituminouscoal-underground": "1222",
    "bituminouscoalandlignitemining": "122",
    "bituminouscoalundergroundmining": "1222",
    "blankbook,looseleafbinder,&devicemfg": "2782",
    "blankbooks&looseleafbinders": "2782",
    "blankbooksandbookbinding": "278",
    "blastfurnaceandbasicsteelproducts": "331",
    "blastfurnaces&steelmills": "3312",
    "blended&preparedflour": "2045",
    "blind&shademfg": "2591",
    "blowers&fans": "3564",
    "boatbuilding": "3732",
    "boatbuilding&repairing": "3732",
    "boatrepair": "3732",
    "bolt,nut,screw,rivet,&washermfg": "3452",
    "bolts,nuts,rivets,&washers": "3452",
    "bookbinding&relatedwork": "2789",
    "bookprinting": "2732",
    "bookprinting2": "2732",
    "bookpublishers": "2731",
    "bookpublishing": "2731",
    "books": "273",
    "bottled&cannedsoftdrinks": "2086",
    "bottledwatermfg": "2086",
    "brassieres&alliedgarments": "2342",
    "bread,cake,&relatedproducts": "2051",
    "breakfastcerealmfg": "2043",
    "breweries": "2082",
    "brick&structuralclaytile": "3251",
    "brick&structuralclaytilemfg": "3251",
    "bridge&tunnelconstruction": "1622",
    "bridge,tunnel,&elevatedhighwayconstructioncontractors": "1622",
    "broadwovenfabricfinishingmills(pt)": "2262",
    "broadwovenfabricfinishingmills(pt)1": "2231",
    "broadwovenfabricfinishingmills(pt)2": "2261",
    "broadwovenfabricmills(pt)": "2299",
    "broadwovenfabricmills(pt)1": "2231",
    "broadwovenfabricmills(pt)2": "2211",
    "broadwovenfabricmills(pt)3": "2221",
    "broadwovenfabricmills,cotton": "221",
    "broadwovenfabricmills,manmadefiberandsilk": "222",
    "broadwovenfabricmills,wool": "223",
    "broom,brush,&mopmfg(pt)": "3991",
    "broom,brush,&mopmfg(pt)1": "2392",
    "brooms&brushes": "3991",
    "buildingconstruction--generalcontractorsandoperativebuilders": "15",
    "buildingequip&othermachineryinstallationcontractors": "1796",
    "burialcasketmfg": "3995",
    "burialcaskets": "3995",
    "calculating&accountingequipment": "3578",
    "candy&otherconfectioneryproducts&chewinggum": "2064",
    "canesugarrefining": "2062",
    "canesugarrefining1": "2062",
    "canned&curedseafood": "2091",
    "cannedfruits&vegetables": "2033",
    "cannedspecialties": "2032",
    "canvas&relatedproductmills": "2394",
    "canvas&relatedproducts": "2394",
    "carbon&graphiteproductmfg": "3624",
    "carbon&graphiteproducts": "3624",
    "carbonblack": "2895",
    "carbonblackmfg(pt)": "2816",
    "carbonblackmfg(pt)4": "2895",
    "carbonpaper&inkedribbonmfg": "3955",
    "carbonpaper&inkedribbons": "3955",
    "carburetor,piston,pistonring,&valvemfg": "3592",
    "carburetors,pistons,rings,&valves": "3592",
    "carpentryandfloorworkspecialtradecontractors": "175",
    "carpentrycontractors": "1751",
    "carpentryworkspecialtradecontractors": "1751",
    "carpet&rugmills": "2273",
    "carpets&rugs": "2273",
    "carpetsandrugs": "227",
    "cellulosicmanmadefibers": "2823",
    "cellulosicorganicfibermfg": "2823",
    "cement,hydraulic": "324",
    "cement,hydraulic2": "3241",
    "cementmfg": "3241",
    "ceramicwall&floortile": "3253",
    "ceramicwall&floortilemfg": "3253",
    "cerealbreakfastfoods": "2043",
    "cheese,natural&processed": "2022",
    "cheesemfg": "2022",
    "chemical&fertilizermineralmining,n.e.c.": "1479",
    "chemicalandfertilizermineralmining": "147",
    "chemicalpreparations,n.e.c.": "2899",
    "chemicalsandalliedproducts": "28",
    "chewing&smokingtobacco": "2131",
    "chewingandsmokingtobacco": "213",
    "chocolate&cocoaproducts": "2066",
    "chocolate&confectionerymfgfromcacaobeans": "2066",
    "cigarettemfg": "2111",
    "cigarettes": "2111",
    "cigarettes1": "211",
    "cigars": "2121",
    "cigars2": "212",
    "circularknitfabricmills": "2257",
    "clay&ceramic&refractorymineralsmining": "1459",
    "clay,ceramic,&refractoryminerals,n.e.c.": "1459",
    "clay,ceramic,andrefractoryminerals": "145",
    "clayrefractories": "3255",
    "clayrefractorymfg": "3255",
    "coalmining": "12",
    "coalminingservices1": "124",
    "coalminingservices2": "1241",
    "coated&laminatedpackagingpaper&plasticsfilmmfg": "2671",
    "coated&laminatedpapermfg(pt)": "2672",
    "coated&laminatedpapermfg(pt)2": "2679",
    "coatedfabrics,notrubberized": "2295",
    "coffee&teamfg(pt)": "2099",
    "coffee&teamfg(pt)1": "2043",
    "coffee&teamfg(pt)3": "2095",
    "cold-rolledsteelshapemfg": "3316",
    "coldfinishingofsteelshapes": "3316",
    "commercial&institutionalbuildingconstruction(pt)": "1522",
    "commercial&institutionalbuildingconstruction(pt)1": "1531",
    "commercial&institutionalbuildingconstruction(pt)2": "1541",
    "commercial&institutionalbuildingconstruction(pt)3": "1542",
    "commercial/industrial/institutionalelectriclightingfixturemfg": "3646",
    "commercialbakeries(pt)": "2052",
    "commercialbakeries(pt)1": "2051",
    "commercialflexographicprinting(pt)": "3999",
    "commercialflexographicprinting(pt)2": "2771",
    "commercialflexographicprinting(pt)3": "2759",
    "commercialgravureprinting(pt)": "3999",
    "commercialgravureprinting(pt)1": "2754",
    "commercialgravureprinting(pt)2": "2771",
    "commerciallaundry,drycleaning,&pressingmachinemfg": "3582",
    "commerciallaundryequipment": "3582",
    "commerciallightingfixtures": "3646",
    "commerciallithographicprinting(pt)": "3999",
    "commerciallithographicprinting(pt)1": "2771",
    "commerciallithographicprinting(pt)3": "2752",
    "commercialprinting": "275",
    "commercialprinting,gravure": "2754",
    "commercialprinting,lithographic": "2752",
    "commercialprinting,n.e.c.": "2759",
    "commercialscreenprinting": "2396",
    "commercialscreenprinting(pt)": "3999",
    "commercialscreenprinting(pt)1": "2759",
    "commercialscreenprinting(pt)2": "2771",
    "communicationsequipment": "366",
    "communicationsequipment,n.e.c.": "3669",
    "computerandofficeequipment": "357",
    "computerperipheralequipment,n.e.c.": "3577",
    "computerstoragedevicemfg": "3572",
    "computerstoragedevices": "3572",
    "computerterminalmfg": "3575",
    "computerterminals": "3575",
    "concrete,gypsum,andplasterproducts": "327",
    "concreteblock&brickmfg": "3271",
    "concretebrick&block": "3271",
    "concretecontractors": "1771",
    "concretepipemfg": "3272",
    "concreteproducts,n.e.c.": "3272",
    "concreteworkspecialtradecontractors1": "177",
    "concreteworkspecialtradecontractors2": "1771",
    "condensed&evaporatedmilk": "2023",
    "confectionerymfgfrompurchasedchocolate(pt)": "2064",
    "construction--Specialtradecontractors": "17",
    "constructionandrelatedmachinery": "353",
    "constructionmachinery": "3531",
    "constructionmachinerymfg": "3531",
    "constructionsand&gravel": "1442",
    "constructionsand&gravelmining": "1442",
    "convertedpaperproducts,n.e.c.": "2679",
    "conveyor&conveyingequipmentmfg(pt)": "3523",
    "conveyor&conveyingequipmentmfg(pt)1": "3535",
    "conveyors&conveyingequipment": "3535",
    "cookie&crackermfg": "2052",
    "cookies&crackers": "2052",
    "copperfoundries": "3366",
    "copperfoundries(exceptdie-casting)": "3366",
    "copperore&nickeloremining(pt)": "1099",
    "copperore&nickeloremining(pt)1": "1021",
    "copperores1": "102",
    "copperores2": "1021",
    "copperrolling&drawing": "3351",
    "copperrolling,drawing,&extruding": "3351",
    "copperwire(exceptmechanical)drawing": "3357",
    "cordage&twine": "2298",
    "corrugated&solidfiberboxes": "2653",
    "corrugated&solidfiberboxmfg": "2653",
    "costumejewelry": "3961",
    "costumejewelry&noveltymfg": "3499",
    "costumejewelry&noveltymfg(pt)": "3961",
    "costumejewelryandnotions": "396",
    "cottonseedoilmills": "2074",
    "creamerybutter": "2021",
    "creamerybuttermfg": "2021",
    "crown&closuremfg": "3466",
    "crowns&closures": "3466",
    "crudepetroleum&naturalgas": "1311",
    "crudepetroleum&naturalgasextraction": "1311",
    "crudepetroleumandnaturalgas": "131",
    "crushed&brokengranite": "1423",
    "crushed&brokengranitemining&quarrying": "1423",
    "crushed&brokenlimestone": "1422",
    "crushed&brokenlimestonemining&quarrying": "1422",
    "crushed&brokenstone,n.e.c.": "1429",
    "crushedandbrokenstone,includingriprap": "142",
    "current-carryingwiringdevicemfg": "3643",
    "current-carryingwiringdevices": "3643",
    "curtain&draperymills(pt)": "2391",
    "curtains&draperies": "2391",
    "customarchitecturalwoodwork&millworkmfg": "2541",
    "customcompoundingofpurchasedresin": "3087",
    "customcompoundpurchasedresins": "3087",
    "customrollforming": "3449",
    "cutlery": "3421",
    "cutlery&flatware(exceptprecious)mfg(pt)": "3914",
    "cutlery,handtools,andhardware": "342",
    "cutstock,resawinglumber,&planing(pt)": "2421",
    "cutstock,resawinglumber,&planing(pt)2": "2439",
    "cutstock,resawinglumber,&planing(pt)5": "2499",
    "cutstock,resawinglumber,&planing1": "2426",
    "cutstone&stoneproductmfg": "3281",
    "cutstone&stoneproducts": "3281",
    "cutstoneandstoneproducts": "328",
    "cuttingtool&machinetoolaccessorymfg": "3545",
    "cycliccrude&intermediatemfg": "2865",
    "cycliccrudes&intermediates": "2865",
    "dairyproducts": "202",
    "database&directorypublishers(pt)": "2741",
    "dehydratedfruits,vegetables,&soups": "2034",
    "dentalequipment&supplies": "3843",
    "dentalequipment&suppliesmfg(pt)": "3843",
    "diagnosticsubstances": "2835",
    "die-cutpaper&board": "2675",
    "die-cutpaper&paperboardofficesuppliesmfg(pt)": "2675",
    "die-cutpaper&paperboardofficesuppliesmfg(pt)2": "2679",
    "digitalprinting": "2759",
    "dimensionstone1": "141",
    "dimensionstone2": "1411",
    "dimensionstonemining&quarrying": "1411",
    "distilledliquor,exceptbrandy": "2085",
    "distilleries": "2085",
    "dog&catfood": "2047",
    "dog&catfoodmfg": "2047",
    "doll&stuffedtoymfg": "3942",
    "dolls": "3942",
    "draperyhardware,blinds,&shades": "2591",
    "dried&dehydratedfoodmfg(pt)": "2099",
    "dried&dehydratedfoodmfg(pt)1": "2034",
    "drillingoil&gaswells1": "1381",
    "drillingoil&gaswells2": "1381",
    "drugs": "283",
    "dry,condensed,&evaporateddairyproductmfg": "2023",
    "drypastamfg": "2098",
    "drywall,plastering,acoustical,&insulationcontractors(pt)": "1742",
    "drywall,plastering,acoustical,&insulationcontractors(pt)1": "1743",
    "drywall,plastering,acoustical,&insulationcontractors(pt)3": "1771",
    "electricalcontractors": "1731",
    "electricalequipment&supplies,n.e.c.": "3699",
    "electricalindustrialapparatus": "362",
    "electricalindustrialapparatus,n.e.c.": "3629",
    "electricalworkspecialtradecontractors": "173",
    "electricalworkspecialtradecontractors1": "1731",
    "electricdistributionequipment": "361",
    "electrichousewares&fans": "3634",
    "electrichousewares&householdfanmfg": "3634",
    "electricitymeasuring&testinginstrumentmfg": "3825",
    "electriclampbulb&partmfg": "3641",
    "electriclamps": "3641",
    "electriclightingandwiringequipment": "364",
    "electromedical&electrotherapeuticapparatusmfg(pt)": "3845",
    "electromedicalequipment": "3845",
    "electrometallurgicalferroalloyproductmfg": "3313",
    "electrometallurgicalproducts": "3313",
    "electronicandotherelectricequipment": "36",
    "electroniccapacitormfg": "3675",
    "electroniccapacitors": "3675",
    "electroniccoil,transformer,&otherinductormfg(pt)": "3825",
    "electroniccoils&transformers": "3677",
    "electroniccomponents,n.e.c.": "3679",
    "electroniccomponentsandaccessories": "367",
    "electroniccomputermfg": "3571",
    "electroniccomputers": "3571",
    "electronicconnectormfg": "3678",
    "electronicconnectors": "3678",
    "electronicresistormfg": "3676",
    "electronicresistors": "3676",
    "electrontubemfg": "3671",
    "electrontubes": "3671",
    "electroplating,plating,polishing,anodizing,&coloring": "3471",
    "elevator&movingstairwaymfg": "3534",
    "elevators&movingstairways": "3534",
    "enamelediron&metalsanitarywaremfg": "3431",
    "engineelectricalequipment": "3694",
    "engineeredwoodmember(excepttruss)mfg": "2439",
    "enginesandturbines": "351",
    "envelopemfg": "2677",
    "envelopes": "2677",
    "environmentalcontrols": "3822",
    "ethylalcoholmfg": "2869",
    "excavationcontractors": "1794",
    "excavationworkspecialtradecontractors": "1794",
    "explosives": "2892",
    "explosivesmfg": "2892",
    "fabricatedmetalproducts": "34",
    "fabricatedmetalproducts,n.e.c.": "3499",
    "fabricatedpipe&fittings": "3498",
    "fabricatedpipe&pipefittingmfg": "3498",
    "fabricatedpipe&pipefittingmfg(pt)": "3353",
    "fabricatedplatework,boilershops": "3443",
    "fabricatedrubberproducts,n.e.c.": "306",
    "fabricatedrubberproducts,n.e.c2": "3069",
    "fabricatedstructuralmetal": "3441",
    "fabricatedstructuralmetalmfg(pt)": "3441",
    "fabricatedstructuralmetalmfg(pt)11": "3449",
    "fabricatedstructuralmetalproducts": "344",
    "fabricatedtextileproducts,n.e.c.": "2399",
    "fabriccoatingmills(pt)": "3069",
    "fabriccoatingmills(pt)1": "2295",
    "fabricgloves&mittens": "2381",
    "farmandgardenmachinery": "352",
    "farmmachinery&equipment": "3523",
    "farmmachinery&equipmentmfg": "3523",
    "fastener,button,needle,&pinmfg(pt)": "3965",
    "fastener,button,needle,&pinmfg(pt)1": "3131",
    "fasteners,buttons,needles,&pins": "3965",
    "fats&oilsrefining&blending(pt)": "2079",
    "fats&oilsrefining&blending(pt)1": "2074",
    "fats&oilsrefining&blending(pt)2": "2075",
    "fats&oilsrefining&blending(pt)3": "2076",
    "fats&oilsrefining&blending(pt)4": "2077",
    "fatsandoils": "207",
    "fertilizer(mixingonly)mfg": "2875",
    "fertilizers,mixingonly": "2875",
    "fibercan,tube,drum,&similarproductsmfg": "2655",
    "fibercans,drums,&similarproducts": "2655",
    "fiberopticcablemfg": "3357",
    "fineearthenwarefoodutensils": "3263",
    "finishingplants,cotton": "2261",
    "finishingplants,n.e.c.": "2269",
    "finishingplants,synthetics": "2262",
    "flatglass": "3211",
    "flatglass1": "321",
    "flatglassmfg": "3211",
    "flavoringextracts&syrups,n.e.c.": "2087",
    "flavoringsyrup&concentratemfg": "2087",
    "floorlaying&otherfloorcontractors": "1752",
    "floorlaying&otherfloorworkspecialtradecontractors,n.e.c.": "1752",
    "flour&othergrainmillproducts": "2041",
    "flourmilling(pt)": "2041",
    "flourmilling(pt)1": "2034",
    "flourmixes&doughmfgfrompurchasedflour": "2045",
    "fluidmeters&countingdevices": "3824",
    "fluidmilk": "2026",
    "fluidmilkmfg": "2026",
    "fluidpowercylinder&actuatormfg(pt)": "3728",
    "fluidpowercylinders&actuators": "3593",
    "fluidpowerpump&motormfg(pt)": "3728",
    "fluidpowerpumps&motors": "3594",
    "fluidpowervalve&hosefittingmfg(pt)": "3728",
    "fluidpowervalve&hosefittingmfg(pt)1": "3492",
    "fluidpowervalves&hosefittings": "3492",
    "foldingpaperboardboxes": "2657",
    "foldingpaperboardboxmfg": "2657",
    "foodandkindredproducts": "20",
    "foodpreparations,n.e.c.": "2099",
    "foodproductmachinerymfg": "3556",
    "foodproductsmachinery": "3556",
    "footwear,exceptrubber": "314",
    "footwear,exceptrubber,n.e.c.": "3149",
    "footwearcutstock": "313",
    "footwearcutstock&findings": "3131",
    "fresh&frozenseafoodprocessing(pt)": "2092",
    "fresh&frozenseafoodprocessing(pt)5": "2077",
    "freshorfrozenseafood": "2092",
    "frozenbakeryproducts,exceptbread": "2053",
    "frozencakes,pies,&otherpastriesmfg": "2053",
    "frozenfruit,juice,&vegetablemfg": "2037",
    "frozenfruits&vegetables": "2037",
    "frozenspecialties,n.e.c.": "2038",
    "frozenspecialtyfoodmfg": "2038",
    "fruit&vegetablecanning(pt)": "2035",
    "fruit&vegetablecanning(pt)1": "2033",
    "fur&leatherapparelmfg": "2386",
    "fur&leatherapparelmfg(pt)": "2371",
    "furgoods": "237",
    "furgoods2": "2371",
    "furniture&fixtures,n.e.c.": "2599",
    "furnitureandfixtures": "25",
    "game,toy,&children'svehiclemfg": "3944",
    "games,toys,&children'svehicles": "3944",
    "gasket,packing,&sealingdevicemfg": "3053",
    "gaskets,packing&sealingdevices": "3053",
    "gasolineengine&enginepartsmfg": "3714",
    "generalbuildingcontractors--nonresidentialbuildings": "154",
    "generalcontractors--industrialbuildings&warehouses": "1541",
    "generalcontractors--nonresidentialbldgs,excindustbldgs/whses": "1542",
    "generalcontractors--residentialbldgs,otherthansingle-family": "1522",
    "generalcontractors--residentialbuildings": "152",
    "generalcontractors--single-familyhouses": "1521",
    "generalindustrialmachinery": "356",
    "generalindustrialmachinery,n.e.c.": "3569",
    "geophysicalsurveying&mappingservices(pt)": "1081",
    "geophysicalsurveying&mappingservices(pt)1": "1382",
    "geophyssrvyngservfornonmetmin(excfuels),contractbasis": "1481",
    "girls'&children'sdresses&blouses": "2361",
    "girls'&children'souterwear,n.e.c.": "2369",
    "girls'andchildren'souterwear": "236",
    "glass&glazingcontractors(pt)": "1793",
    "glass&glazingworkspecialtradecontractors": "1793",
    "glassandglassware,pressedorblown": "322",
    "glasscontainermfg": "3221",
    "glasscontainers": "3221",
    "glassproductmfgmadeofpurchasedglass": "3231",
    "glove&mittenmfg(pt)": "2381",
    "glove&mittenmfg(pt)1": "3151",
    "goldandsilverores": "104",
    "goldoremining": "1041",
    "goldores": "1041",
    "grainmillproducts": "204",
    "grayironfoundries": "3321",
    "greetingcardpublishers": "2771",
    "greetingcards": "277",
    "greetingcards1": "2771",
    "groundortreatedmineral&earthmfg": "3295",
    "guidedmissile&spacevehiclemfg": "3761",
    "guidedmissile&spacevehiclepropulsionunit&partsmfg": "3764",
    "guidedmissiles&spacevehicles": "3761",
    "guidedmissiles,spacevehicles,parts": "376",
    "gum&woodchemicalmfg": "2861",
    "gum&woodchemicals": "2861",
    "gypsumproductmfg": "3275",
    "gypsumproductmfg(pt)": "3299",
    "gypsumproducts": "3275",
    "hand&edgetoolmfg": "3523",
    "hand&edgetoolmfg(pt)": "3999",
    "hand&edgetoolmfg(pt)11": "3545",
    "hand&edgetoolmfg1": "3524",
    "hand&edgetoolmfg6": "3423",
    "hand&edgetools,n.e.c.": "3423",
    "handbagsandpersonalleathergoods": "317",
    "handsaws&sawblades": "3425",
    "hardsurfacefloorcoverings": "3996",
    "hardware,n.e.c.": "3429",
    "hardwaremfg": "3499",
    "hardwaremfg(pt)": "3429",
    "hardwooddimension&flooringmills": "2426",
    "hardwoodveneer&plywood": "2435",
    "hardwoodveneer&plywoodmfg": "2435",
    "hat,cap,&millinerymfg": "2353",
    "hats,caps,&millinery": "2353",
    "hats,caps,andmillinery": "235",
    "heatingequipment(exceptwarmairfurnaces)mfg(pt)": "3634",
    "heatingequipment(exceptwarmairfurnaces)mfg(pt)1": "3433",
    "heatingequipment,exceptelectric": "3433",
    "heavyconstruction,excepthighwayandstreetconstruction": "162",
    "heavyconstruction,n.e.c.": "1629",
    "heavyconstructionotherthanbuildingsconstruction--contractors": "16",
    "heavydutytruckmfg": "3711",
    "highway&streetconstruction": "1611",
    "highway&streetconstructioncontractors,excelevatedhighways": "1611",
    "highwayandstreetconstructioncontractors,exceptelevatedhighways": "161",
    "hoists,cranes,&monorails": "3536",
    "hoseandbeltingandgasketsandpacking": "305",
    "hosiery,n.e.c.": "2252",
    "housefurnishings,n.e.c.": "2392",
    "householdappliances": "363",
    "householdappliances,n.e.c.": "3639",
    "householdaudio&videoequipment": "3651",
    "householdaudioandvideoequipment": "365",
    "householdcookingappliancemfg": "3631",
    "householdcookingequipment": "3631",
    "householdfurniture": "251",
    "householdfurniture(exceptwood&metal)mfg": "2519",
    "householdfurniture,n.e.c.": "2519",
    "householdlaundryequipment": "3633",
    "householdlaundryequipmentmfg": "3633",
    "householdrefrigerator&homefreezermfg": "3632",
    "householdrefrigerators&freezers": "3632",
    "householdvacuumcleanermfg(pt)": "3639",
    "householdvacuumcleaners": "3635",
    "houseslippermfg": "3142",
    "houseslippers": "3142",
    "icecream&frozendessertmfg": "2024",
    "icecream&frozendesserts": "2024",
    "icemfg": "2097",
    "in-vitrodiagnosticsubstancemfg": "2835",
    "industrial&commercialfan&blowermfg": "3564",
    "industrialfurnaces&ovens": "3567",
    "industrialgases": "2813",
    "industrialgasmfg(pt)": "2813",
    "industrialgasmfg(pt)2": "2869",
    "industrialinorganicchemicals": "281",
    "industrialinorganicchemicals,n.e.c.": "2819",
    "industrialmachinery": "359",
    "industrialmachinery,n.e.c.": "3599",
    "industrialmachineryandequipment": "35",
    "industrialmoldmfg": "3544",
    "industrialnonbuildingstructureconstruction": "1629",
    "industrialorganicchemicals": "286",
    "industrialorganicchemicals,n.e.c.": "2869",
    "industrialpatternmfg": "3543",
    "industrialpatterns": "3543",
    "industrialprocesscontrolinstrumentmfg": "3823",
    "industrialprocessfurnace&ovenmfg": "3567",
    "industrialsand": "1446",
    "industrialsandmining": "1446",
    "industrialtruck,tractor,trailer,&stackermachinerymfg": "3537",
    "industrialtrucks&tractors": "3537",
    "industrialvalvemfg": "3491",
    "industrialvalves": "3491",
    "infants'cut&sewapparelmfg": "2385",
    "infants'cut&sewapparelmfg(pt)": "2361",
    "infants'cut&sewapparelmfg(pt)1": "2341",
    "infants'cut&sewapparelmfg(pt)23": "2369",
    "inorganicdye&pigmentmfg(pt)": "2816",
    "inorganicdye&pigmentmfg(pt)1": "2819",
    "inorganicpigments": "2816",
    "installorerectionofbldgequip,specialtradecontr,n.e.c.": "1796",
    "institutionalfurnituremfg(pt)": "3952",
    "institutionalfurnituremfg(pt)2": "2599",
    "institutionalfurnituremfg(pt)6": "2531",
    "instrumentsandrelatedproducts": "38",
    "instrumentstomeasureelectricity": "3825",
    "internalcombustionengines,n.e.c.": "3519",
    "iron&steelforging": "3462",
    "iron&steelforgings": "3462",
    "iron&steelmills": "3399",
    "iron&steelmills(pt)": "3312",
    "iron&steelpipes&tubesmfgfrompurchasedsteel": "3317",
    "ironandsteelfoundries": "332",
    "ironfoundries(pt)": "3322",
    "ironfoundries(pt)3": "3321",
    "ironoremining": "1011",
    "ironores1": "101",
    "ironores2": "1011",
    "irradiationapparatusmfg": "3844",
    "jewelers'material&lapidaryworkmfg": "3915",
    "jewelers'materials&lapidarywork": "3915",
    "jewelry(exceptcostume)mfg(pt)": "3911",
    "jewelry,preciousmetal": "3911",
    "jewelry,silverware,andplatedware": "391",
    "kaolin&ballclay": "1455",
    "kaolin&ballclaymining": "1455",
    "kitchenutensil,pot,&panmfg": "3469",
    "knitouterwearmills": "2253",
    "knittingmills": "225",
    "knittingmills,n.e.c.": "2259",
    "knitunderwearmills": "2254",
    "laboratoryapparatus&furniture": "3821",
    "laboratoryapparatus&furnituremfg": "3821",
    "lace&warpknitfabricmills": "2258",
    "laminatedaluminumfoilmfgforflexiblepackaginguses": "3497",
    "laminatedplasticsplate&sheet": "3083",
    "laminatedplasticsplate,sheet,&shapemfg": "3083",
    "lawn&gardenequipment": "3524",
    "lawn&gardentractor&homelawn&gardenequipmentmfg": "3524",
    "lead&zincores": "1031",
    "leadandzincores": "103",
    "leadore&zincoremining": "1031",
    "leadpencil&artgoodmfg": "3579",
    "leadpencil&artgoodmfg(pt)": "3952",
    "leadpencil&artgoodmfg(pt)6": "2531",
    "leadpencils&artgoods": "3952",
    "leather&hidetanning&finishing(pt)": "3999",
    "leather&hidetanning&finishing(pt)1": "3111",
    "leather&sheep-linedclothing": "2386",
    "leatherandleatherproducts": "31",
    "leathergloves&mittens": "3151",
    "leatherglovesandmittens": "315",
    "leathergoods,n.e.c.": "3199",
    "leathergoods,n.e.c.1": "319",
    "leathertanning&finishing": "3111",
    "leathertanningandfinishing": "311",
    "lightingequipment,n.e.c.": "3648",
    "lighttruck&utilityvehiclemfg": "3711",
    "lime": "3274",
    "limemfg": "3274",
    "logging1": "241",
    "logging2": "2411",
    "logging3": "2411",
    "lubricatingoils&greases": "2992",
    "luggage": "3161",
    "luggage1": "316",
    "luggagemfg": "3161",
    "lumberandwoodproducts": "24",
    "macaroni&spaghetti": "2098",
    "machineshops": "3599",
    "machinetool(metalcuttingtypes)": "3541",
    "machinetool(metalcuttingtypes)mfg(pt)": "3699",
    "machinetool(metalformingtypes)mfg": "3542",
    "machinetoolaccessories": "3545",
    "machinetools,metalcuttingtypes": "3541",
    "machinetools,metalformingtypes": "3542",
    "magnetic&opticalrecordingmedia": "3695",
    "magnetic&opticalrecordingmediamfg": "3695",
    "malleableironfoundries": "3322",
    "malt": "2083",
    "maltbeverages": "2082",
    "maltmfg": "2083",
    "manifoldbusinessformprinting(pt)": "2761",
    "manifoldbusinessformprinting(pt)1": "2782",
    "manifoldbusinessforms": "276",
    "manifoldbusinessforms2": "2761",
    "manufacturedhome(mobilehome)mfg": "2451",
    "manufacturedice": "2097",
    "markingdevicemfg": "3953",
    "markingdevices": "3953",
    "masonry&stonecontractors": "1741",
    "masonry,stonesetting,&othstoneworkspecialtradecontr": "1741",
    "masonry,stonework,tilesetting,andplasteringspecialtradecontra": "174",
    "mattresses&bedsprings": "2515",
    "mattressmfg": "2515",
    "mayonnaise,dressing,&otherpreparedsaucemfg(pt)": "2099",
    "mayonnaise,dressing,&otherpreparedsaucemfg(pt)1": "2035",
    "measuring&controllingdevices,n.e.c.": "3829",
    "measuring&dispensingpumpmfg": "3586",
    "measuring&dispensingpumps": "3586",
    "measuringandcontrollingdevices": "382",
    "meatpackingplants": "2011",
    "meatprocessedfromcarcasses(pt)": "2013",
    "meatproducts": "201",
    "mechanicalpowertransmissionequipmentmfg": "3568",
    "mechanicalrubbergoods": "3061",
    "medicalinstrumentsandsupplies": "384",
    "medicinal&botanicalmfg": "2833",
    "medicinals&botanicals": "2833",
    "men's&boys'clothing,n.e.c.": "2329",
    "men's&boys'cut&sewapparelcontractors(pt)": "2384",
    "men's&boys'cut&sewapparelcontractors(pt)1": "2311",
    "men's&boys'cut&sewapparelcontractors(pt)11": "2385",
    "men's&boys'cut&sewapparelcontractors(pt)2": "2321",
    "men's&boys'cut&sewapparelcontractors(pt)23": "2395",
    "men's&boys'cut&sewapparelcontractors(pt)3": "2322",
    "men's&boys'cut&sewapparelcontractors(pt)4": "2325",
    "men's&boys'cut&sewapparelcontractors(pt)5": "2341",
    "men's&boys'cut&sewapparelcontractors(pt)6": "2326",
    "men's&boys'cut&sewapparelcontractors(pt)7": "2329",
    "men's&boys'cut&sewotherouterwearmfg(pt)": "2369",
    "men's&boys'cut&sewotherouterwearmfg(pt)1": "2385",
    "men's&boys'cut&sewotherouterwearmfg(pt)8": "2329",
    "men's&boys'cut&sewshirt(excworkshirt)mfg(pt)": "2361",
    "men's&boys'cut&sewshirt(excworkshirt)mfg(pt)1": "2321",
    "men's&boys'cut&sewsuit,coat,&overcoatmfg(pt)": "2369",
    "men's&boys'cut&sewsuit,coat,&overcoatmfg(pt)1": "2385",
    "men's&boys'cut&sewsuit,coat,&overcoatmfg(pt)2": "2311",
    "men's&boys'cut&sewtrouser,slack,&jeanmfg(pt)": "2369",
    "men's&boys'cut&sewtrouser,slack,&jeanmfg(pt)5": "2325",
    "men's&boys'cut&sewunderwear&nightwearmfg(pt)": "2369",
    "men's&boys'cut&sewunderwear&nightwearmfg(pt)1": "2322",
    "men's&boys'cut&sewunderwear&nightwearmfg(pt)12": "2384",
    "men's&boys'cut&sewunderwear&nightwearmfg(pt)7": "2341",
    "men's&boys'cut&sewworkclothingmfg": "2326",
    "men's&boys'neckwear": "2323",
    "men's&boys'neckwearmfg": "2323",
    "men's&boys'suits&coats": "2311",
    "men's&boys'trousers&slacks": "2325",
    "men's&boys'underwear&nightwear": "2322",
    "men's&boys'workclothing": "2326",
    "men'sandboys'furnishings": "232",
    "men'sandboys'suitsandcoats": "231",
    "men'sfootwear(exceptathletic)mfg": "3143",
    "men'sfootwear,exceptathletic": "3143",
    "metalbarrels,drums,&pails": "3412",
    "metalcanmfg": "3411",
    "metalcans": "3411",
    "metalcansandshippingcontainers": "341",
    "metalcoating&alliedservices": "3479",
    "metalcoating/engraving(excjewelry/silverware)/alliedservices": "3479",
    "metaldoors,sash,&trim": "3442",
    "metalfoil&leaf": "3497",
    "metalforgingsandstampings": "346",
    "metalheattreating": "3398",
    "metalheattreating1": "3398",
    "metalhouseholdfurniture": "2514",
    "metalhouseholdfurnituremfg": "2514",
    "metalmining": "10",
    "metalminingservices1": "108",
    "metalminingservices2": "1081",
    "metalsanitaryware": "3431",
    "metalservices,n.e.c.": "347",
    "metalstamping": "3469",
    "metalstampings,n.e.c.": "3469",
    "metaltank(heavygauge)mfg": "3443",
    "metalwindow&doormfg(pt)": "2499",
    "metalwindow&doormfg(pt)11": "3442",
    "metalwindow&doormfg(pt)123": "3449",
    "metalworkingmachinery": "354",
    "metalworkingmachinery,n.e.c.": "3549",
    "mfg&industrialbuildingconstruction(pt)": "1531",
    "mfg&industrialbuildingconstruction(pt)1": "1541",
    "mfgindustries,n.e.c.": "3999",
    "militaryarmoredvehicle,tank,&tankcomponentmfg(pt)": "3795",
    "millwork": "2431",
    "millwork,plywood,andstructuralmembers": "243",
    "minerals,groundortreated": "3295",
    "mineralwool": "3296",
    "mineralwoolmfg": "3296",
    "miningmachinery": "3532",
    "miningmachinery&equipmentmfg": "3532",
    "miscellaneousapparelandaccessories": "238",
    "miscellaneouschemicalproducts": "289",
    "miscellaneousconvertedpaperproducts": "267",
    "miscellaneouselectricalequipmentandsupplies": "369",
    "miscellaneousfabricatedmetalproducts": "349",
    "miscellaneousfabricatedtextileproducts": "239",
    "miscellaneousfabricatedwireproducts": "3496",
    "miscellaneousfoodandkindredproducts": "209",
    "miscellaneousfurnitureandfixtures": "259",
    "miscellaneousmanufactures": "399",
    "miscellaneousmanufacturingindustries": "39",
    "miscellaneousmetalores": "109",
    "miscellaneousmetalwork": "3449",
    "miscellaneousnonmetallicmineralproducts": "329",
    "miscellaneousnonmetallicminerals,exceptfuels1": "149",
    "miscellaneousnonmetallicminerals,exceptfuels2": "1499",
    "miscellaneouspetroleumandcoalproducts": "299",
    "miscellaneousplasticsproducts,n.e.c.": "308",
    "miscellaneousprimarymetalproducts": "339",
    "miscellaneouspublishing": "274",
    "miscellaneouspublishing1": "2741",
    "miscellaneousspecialtradecontractors": "179",
    "miscellaneoustextilegoods": "229",
    "miscellaneoustransportationequipment": "379",
    "miscellaneouswoodproducts": "249",
    "miscmetalores,n.e.c.,&ferroalloyores,excvanadium": "1061",
    "mobilehomes": "2451",
    "motor&generatormfg(pt)": "3621",
    "motorcycle,bicycle,&partsmfg(pt)": "3944",
    "motorcycles,bicycles,&parts": "3751",
    "motorcycles,bicycles,andparts": "375",
    "motorhomemfg": "3716",
    "motorhomes": "3716",
    "motors&generators": "3621",
    "motorvehicleair-conditioningmfg": "3585",
    "motorvehiclebodymfg(pt)": "3714",
    "motorvehiclebrakesystemmfg(pt)": "3714",
    "motorvehiclebrakesystemmfg(pt)2": "3292",
    "motorvehiclemetalstamping": "3465",
    "motorvehicleparts&accessories": "3714",
    "motorvehicles&carbodies": "3711",
    "motorvehiclesandequipment": "371",
    "motorvehicleseating&interiortrimmfg(pt)": "2396",
    "motorvehicleseating&interiortrimmfg(pt)2": "2399",
    "motorvehicleseating&interiortrimmfg(pt)9": "2531",
    "motorvehiclesteering&suspensioncomponent(exceptspring)mfg": "3714",
    "motorvehicletransmission&powertrainpartsmfg": "3714",
    "multifamilyhousingconstruction(pt)": "1522",
    "multifamilyhousingconstruction(pt)1": "1531",
    "musicalinstrumentmfg": "3931",
    "musicalinstruments": "3931",
    "musicpublishers(pt)": "2731",
    "musicpublishers(pt)2": "2741",
    "nailedwoodboxes&shook": "2441",
    "narrowfabricmills": "2241",
    "narrowfabricmills(pt)": "2299",
    "narrowfabricmills(pt)1": "2241",
    "narrowfabricmills1": "224",
    "naturalgasliquidextraction": "1321",
    "naturalgasliquids1": "132",
    "naturalgasliquids2": "1321",
    "newspaperpublishers": "2711",
    "newspapers": "271",
    "newspapers2": "2711",
    "newsprintmills": "2621",
    "nitrogenousfertilizermfg": "2873",
    "nitrogenousfertilizers": "2873",
    "noncellulosicorganicfibermfg": "2824",
    "nonchocolateconfectionerymfg(pt)": "2099",
    "nonchocolateconfectionerymfg(pt)1": "2064",
    "nonclayrefractories": "3297",
    "nonclayrefractorymfg": "3297",
    "noncurrent-carryingwiringdevicemfg": "3644",
    "noncurrent-carryingwiringdevices": "3644",
    "nonferrous(exceptaluminum)die-castingfoundries": "3364",
    "nonferrousdie-casting,exceptaluminum": "3364",
    "nonferrousforging": "3463",
    "nonferrousforgings": "3463",
    "nonferrousfoundries(castings)": "336",
    "nonferrousfoundries,n.e.c.": "3369",
    "nonferrousrolling&drawing,n.e.c.": "3356",
    "nonferrousrollinganddrawing": "335",
    "nonferrouswiredrawing&insulating": "3357",
    "nonfoldingsanitaryfoodcontainermfg": "2656",
    "nonmetallicmineralproducts,n.e.c.": "3299",
    "nonmetallicminerals,exceptfuels": "14",
    "nonmetallicmineralsservices,exceptfuels1": "148",
    "nonmetallicmineralsservices,exceptfuels2": "1481",
    "nonupholsteredwoodhouseholdfurnituremfg(pt)": "2511",
    "nonwovenfabricmills(pt)": "2299",
    "nonwovenfabricmills(pt)2": "2297",
    "nonwovenfabrics": "2297",
    "officefurniture": "252",
    "officefurniture(exceptwood)mfg": "2522",
    "officefurniture,exceptwood": "2522",
    "officemachinerymfg": "3579",
    "officemachinerymfg(pt)": "3578",
    "officemachines,n.e.c.": "3579",
    "oil&gasexplorationservices": "1382",
    "oil&gasfieldmachinery&equipmentmfg": "3533",
    "oil&gasfieldservices,n.e.c.": "1389",
    "oilandgasextraction": "13",
    "oilandgasfieldservices": "138",
    "oilfieldmachinery": "3533",
    "operativebuilders": "153",
    "operativebuilders2": "1531",
    "ophthalmicgoods": "3851",
    "ophthalmicgoodsmfg": "3851",
    "opticalinstrument&lensmfg(pt)": "3827",
    "opticalinstruments&lenses": "3827",
    "ordnance&accessories,n.e.c.": "3489",
    "ordnanceandaccessories,n.e.c.": "348",
    "organicfibers,noncellulosic": "2824",
    "ornamental&architecturalmetalworkmfg": "3523",
    "ornamental&architecturalmetalworkmfg(pt)": "3446",
    "ornamental&architecturalmetalworkmfg1": "3449",
    "otheraircraftpart&auxiliaryequipmentmfg": "3728",
    "otheraluminumrolling&drawing(pt)": "3355",
    "otheraluminumrolling&drawing1": "3357",
    "otheranimalfoodmfg": "2048",
    "otherapparelaccessories&otherapparelmfg": "2396",
    "otherapparelaccessories&otherapparelmfg(pt)": "2385",
    "otherapparelaccessories&otherapparelmfg(pt)11": "2389",
    "otherapparelaccessories&otherapparelmfg(pt)2": "2399",
    "otherapparelaccessories&otherapparelmfg(pt)3": "2339",
    "otherapparelaccessories&otherapparelmfg34": "2387",
    "otherchemical&fertilizermineralmining": "1479",
    "othercommercial&serviceindustrymachinerymfg": "3589",
    "othercommercial&serviceindustrymachinerymfg(pt)": "3699",
    "othercommercial&serviceindustrymachinerymfg1": "3559",
    "othercommercialprinting(pt)": "3999",
    "othercommercialprinting(pt)1": "2771",
    "othercommercialprinting(pt)3": "2759",
    "othercommunication&energywiremfg": "3357",
    "othercommunicationsequipmentmfg": "3669",
    "othercomputerperipheralequipmentmfg": "3578",
    "othercomputerperipheralequipmentmfg(pt)": "3699",
    "otherconcreteproductmfg": "3272",
    "othercrushed&brokenstonemining&quarrying(pt)": "1429",
    "othercrushed&brokenstonemining&quarrying(pt)1": "1499",
    "otherelectroniccomponentmfg": "3679",
    "otherengineequipmentmfg": "3519",
    "otherengineequipmentmfg(pt)": "3699",
    "otherfabricatedwireproductmfg": "3496",
    "otherfabricatedwireproductmfg(pt)": "3315",
    "otherfabricatedwireproductmfg(pt)1": "3399",
    "otherfootwearmfg": "3149",
    "otherguidedmissile&spacevehicleparts&auxiliaryequipmfg": "3769",
    "otherhosiery&sockmills": "2252",
    "otherhouseholdtextileproductmills": "2392",
    "otherknitfabric&lacemills(pt)": "2259",
    "otherknitfabric&lacemills(pt)1": "2258",
    "otherlightingequipmentmfg(pt)": "3699",
    "othermajorhouseholdappliancemfg": "3639",
    "othermeasuring&controllingdevicemfg(pt)": "3829",
    "othermetalcontainermfg": "3499",
    "othermetalcontainermfg(pt)": "3412",
    "othermetalcontainermfg(pt)1": "3537",
    "othermetalcontainermfg(pt)123": "3444",
    "othermetalcontainermfg(pt)5": "3429",
    "othermetalvalve&pipefittingmfg": "3494",
    "othermetalvalve&pipefittingmfg(pt)": "3429",
    "othermetalvalve&pipefittingmfg1": "3499",
    "othermetalworkingmachinerymfg": "3549",
    "othermillwork(includingflooring)": "2431",
    "othermillwork(includingflooring)(pt)": "2421",
    "othermillwork(includingflooring)1": "2426",
    "othermotorvehicleelectrical&electronicequipmentmfg(pt)": "3714",
    "othernonferrousfoundries(exceptdie-casting)": "3369",
    "othernonferrousmetalprimarysmelting&refining": "3339",
    "othernonferrousmetalrolling,drawing,&extruding": "3357",
    "othernonferrousmetalrolling,drawing,&extruding(pt)": "3356",
    "othernonferrousmetalsecondarysmelting,refining": "3399",
    "othernonferrousmetalsecondarysmelting,refining,&alloying(": "3313",
    "othernonferrousmetalsecondarysmelting,refining1": "3341",
    "otheroilseedprocessing(pt)": "2076",
    "otheroilseedprocessing(pt)1": "2074",
    "otherordnance&accessoriesmfg": "3489",
    "otherpressed&blownglass&glasswaremfg": "3229",
    "othersnackfoodmfg(pt)": "2096",
    "othersnackfoodmfg(pt)1": "2052",
    "otherstructuralclayproductmfg": "3259",
    "othertobaccoproductmfg(pt)": "2141",
    "othertobaccoproductmfg(pt)2": "2131",
    "othertobaccoproductmfg(pt)3": "2121",
    "outerwearknittingmills(pt)": "2259",
    "outerwearknittingmills(pt)1": "2253",
    "overheadtravelingcrane,hoist,&monorailsystemmfg(pt)": "3531",
    "overheadtravelingcrane,hoist,&monorailsystemmfg(pt)1": "3536",
    "packagingmachinery": "3565",
    "packagingmachinerymfg": "3565",
    "paint&coatingmfg(pt)": "2851",
    "paint&coatingmfg(pt)3": "2899",
    "painting&paperhangingspecialtradecontractors": "1721",
    "painting&wallcoveringcontractors(pt)": "1721",
    "paintingandpaperhangingspecialtradecontractors": "172",
    "paints&alliedproducts": "2851",
    "paintsandalliedproducts": "285",
    "paper(exceptnewsprint)mills(pt)": "3842",
    "paper(exceptnewsprint)mills(pt)1": "2621",
    "paper(exceptnewsprint)mills(pt)2": "2676",
    "paper-coated&laminated,n.e.c.": "2672",
    "paper-coated&laminated,packaging": "2671",
    "paperandalliedproducts": "26",
    "paperboardcontainersandboxes": "265",
    "paperboardmills": "263",
    "paperboardmills2": "2631",
    "paperboardmills3": "2631",
    "paperindustriesmachinery": "3554",
    "paperindustrymachinerymfg": "3554",
    "papermills3": "262",
    "papermills6": "2621",
    "partitions&fixtures,exceptwood": "2542",
    "partitionsandfixtures": "254",
    "pen&mechanicalpencilmfg": "3951",
    "pens&mechanicalpencils": "3951",
    "pens,pencils,office,andartsupplies": "395",
    "periodicalpublishers": "2721",
    "periodicals": "272",
    "periodicals1": "2721",
    "perishablepreparedfoodmfg": "2099",
    "personalleathergood(exceptwomen'shandbag&purse)mfg": "3172",
    "personalleathergoods,n.e.c.": "3172",
    "pesticide&otheragriculturalchemicalmfg": "2879",
    "petrochemicalmfg(pt)": "2869",
    "petrochemicalmfg(pt)4": "2865",
    "petroleum&coalproducts,n.e.c.": "2999",
    "petroleumandcoalproducts": "29",
    "petroleumlubricatingoil&greasemfg": "2992",
    "petroleumrefineries": "2911",
    "petroleumrefining": "291",
    "petroleumrefining2": "2911",
    "pharmaceuticalpreparationmfg(pt)": "2834",
    "pharmaceuticalpreparationmfg(pt)5": "2835",
    "pharmaceuticalpreparations": "2834",
    "phosphaterock": "1475",
    "phosphaterockmining": "1475",
    "phosphaticfertilizermfg": "2874",
    "phosphaticfertilizers": "2874",
    "photographic&photocopyingequipmentmfg(pt)": "3861",
    "photographicequipment&supplies": "3861",
    "photographicequipmentandsupplies": "386",
    "photographicfilm,paper,plate,&chemicalmfg": "3861",
    "pickles,sauces,&saladdressings": "2035",
    "plastering,drywall,acoustical,&insulworkspecialtradecontr": "1742",
    "plastics&rubberindustrymachinerymfg": "3559",
    "plastics,foil,&coatedpaperbagmfg": "2673",
    "plasticsbottlemfg": "3085",
    "plasticsbottles": "3085",
    "plasticsfoamproducts": "3086",
    "plasticsmaterial&resinmfg": "2821",
    "plasticsmaterials&resins": "2821",
    "plasticsmaterialsandsynthetics": "282",
    "plasticspipe": "3084",
    "plasticspipe&pipefittingmfg(pt)": "3084",
    "plasticspipe&pipefittingmfg(pt)1": "3089",
    "plasticsplumbingfixturemfg": "3088",
    "plasticsplumbingfixtures": "3088",
    "plasticsproducts,n.e.c.": "3089",
    "platemakingservices": "2796",
    "plateworkmfg": "3443",
    "plating&polishing": "3471",
    "pleating&stitching": "2395",
    "plumbing,heating,&air-conditioningcontractors": "1711",
    "plumbing,heating,&air-conditioningspecialtradecontractors": "1711",
    "plumbing,heating,andair-conditioningspecialtradecontractors": "171",
    "plumbingandheating,exceptelectric": "343",
    "plumbingfittings&brassgoods": "3432",
    "plumbingfixturefitting&trimmfg": "3432",
    "polish&othersanitationgoodmfg": "2842",
    "polishes&sanitationgoods": "2842",
    "polystyrenefoamproductmfg": "3086",
    "porcelainelectricalsupplies": "3264",
    "porcelainelectricalsupplymfg": "3264",
    "potash,soda,&boratemineralmining": "1474",
    "potash,soda,&borateminerals": "1474",
    "potatochips&similarsnacks": "2096",
    "potteryandrelatedproducts": "326",
    "potteryproducts,n.e.c.": "3269",
    "poultry&eggprocessing": "2015",
    "poultryprocessing": "2015",
    "powdermetallurgypartmfg": "3499",
    "power&communicationtransmissionlineconstruction": "1623",
    "power,distribution,&specialtytransformermfg": "3548",
    "power,distribution,&specialtytransformermfg(pt)": "3612",
    "power-drivenhandtoolmfg": "3546",
    "power-drivenhandtools": "3546",
    "powerboiler&heatexchangermfg": "3443",
    "powertransmissionequipment,n.e.c.": "3568",
    "precisionturnedproductmfg": "3451",
    "prefabricatedmetalbuilding&componentmfg": "3448",
    "prefabricatedmetalbuildings": "3448",
    "prefabricatedwoodbuildingmfg": "2452",
    "prefabricatedwoodbuildings": "2452",
    "preparedfeeds,n.e.c.": "2048",
    "prepressservices(pt)": "2791",
    "prepressservices(pt)1": "2796",
    "prerecordedCD(exceptsoftware),tape,&recordreproducing(pt)": "3652",
    "prerecordedrecords&tapes": "3652",
    "preservedfruitsandvegetables": "203",
    "pressed&blownglass,n.e.c.": "3229",
    "primaryaluminum": "3334",
    "primaryaluminumproduction": "3334",
    "primarybatteries,dry&wet": "3692",
    "primarybatterymfg": "3692",
    "primarycopper": "3331",
    "primarymetalindustries": "33",
    "primarymetalproducts,n.e.c.": "3399",
    "primarynonferrousmetals": "333",
    "primarynonferrousmetals,n.e.c.": "3339",
    "primarysmelting&refiningofcopper": "3331",
    "printedcircuitassembly(electronicassembly)mfg(pt)": "3679",
    "printedcircuitboards": "3672",
    "printingandpublishing": "27",
    "printingink": "2893",
    "printinginkmfg": "2893",
    "printingmachinery&equipmentmfg(pt)": "3699",
    "printingmachinery&equipmentmfg(pt)4": "3555",
    "printingtradeservices": "279",
    "printingtradesmachinery": "3555",
    "processcontrolinstruments": "3823",
    "productsofpurchasedglass": "323",
    "productsofpurchasedglass2": "3231",
    "publicbuilding&relatedfurniture": "2531",
    "publicbuildingandrelatedfurniture": "253",
    "pulpmills": "2611",
    "pulpmills1": "261",
    "pulpmills2": "2611",
    "pump&pumpingequipmentmfg(pt)": "3743",
    "pumps&pumpingequipment": "3561",
    "quickprinting(pt)": "2752",
    "quickprinting(pt)2": "2759",
    "radio&TVbroadcasting&wirelesscommunicationsequipmentmfg(": "3679",
    "radio&TVcommunicationsequipment": "3663",
    "railroadequipment": "3743",
    "railroadrollingstockmfg(pt)": "3743",
    "rawcanesugar": "2061",
    "ready-mixconcretemfg": "3273",
    "ready-mixedconcrete": "3273",
    "reconstitutedwoodproductmfg": "2493",
    "reconstitutedwoodproducts": "2493",
    "refrigeration&heatingequipment": "3585",
    "refrigerationandservicemachinery": "358",
    "relay&industrialcontrolmfg": "3625",
    "relays&industrialcontrols": "3625",
    "rendering&meatbyproductprocessing": "2077",
    "residentialelectriclightingfixturemfg(pt)": "3999",
    "residentialelectriclightingfixturemfg(pt)2": "3089",
    "residentiallightingfixtures": "3645",
    "resilientfloorcoveringmfg(pt)": "3996",
    "resilientfloorcoveringmfg(pt)2": "3069",
    "ricemilling": "2044",
    "ricemilling1": "2044",
    "roastedcoffee": "2095",
    "roastednuts&peanutbuttermfg(pt)": "2099",
    "roastednuts&peanutbuttermfg(pt)1": "2068",
    "robes&dressinggowns": "2384",
    "rollingmillmachinery": "3547",
    "rollingmillmachinery&equipmentmfg": "3547",
    "roofing,siding,&sheetmetalcontractors": "1761",
    "roofing,siding,&sheetmetalworkspecialtradecontractors": "1761",
    "roofing,siding,andsheetmetalworkspecialtradecontractors": "176",
    "rope,cordage,&twinemills": "2298",
    "rubber&plasticsfootwear": "3021",
    "rubber&plasticsfootwearmfg": "3021",
    "rubber&plasticshose&belting": "3052",
    "rubber&plasticshoses&beltingmfg": "3052",
    "rubberandmiscellaneousplasticsproducts": "30",
    "rubberandplasticsfootwear": "302",
    "rubberproductmfgformechanicaluse": "3061",
    "salted&roastednuts&seeds": "2068",
    "sandandgravel": "144",
    "sanitaryfoodcontainers": "2656",
    "sanitarypaperproductmfg(pt)": "3842",
    "sanitarypaperproductmfg(pt)1": "2676",
    "sanitarypaperproducts": "2676",
    "sausages&otherpreparedmeats": "2013",
    "sawblade&handsawmfg": "3425",
    "sawmill&woodworkingmachinerymfg": "3553",
    "sawmills": "2429",
    "sawmills&planingmills,general": "2421",
    "sawmills(pt)": "2421",
    "sawmills(pt)1": "2439",
    "sawmillsandplaningmills": "242",
    "scale&balance(exceptlaboratory)mfg": "3596",
    "scales&balances,exceptlaboratory": "3596",
    "schifflimachineembroideries": "2397",
    "schifflimachineembroidery": "2397",
    "screwmachineproducts": "3451",
    "screwmachineproducts,bolts,etc.": "345",
    "seafoodcanning(pt)": "2091",
    "seafoodcanning(pt)1": "2077",
    "search&navigationequipment": "3812",
    "search,detection,navigation,&guidanceinstrumentmfg(pt)": "3812",
    "searchandnavigationequipment": "381",
    "secondarynonferrousmetals": "3341",
    "secondarynonferrousmetals1": "334",
    "secondarysmelting&alloyingofaluminum": "3399",
    "secondarysmelting&alloyingofaluminum(pt)": "3341",
    "secondarysmelting,refining,&alloyingofcopper": "3399",
    "secondarysmelting,refining,&alloyingofcopper(pt)": "3341",
    "semiconductor&relateddevicemfg": "3674",
    "semiconductormachinerymfg": "3559",
    "semiconductors&relateddevices": "3674",
    "serviceindustrymachinery,n.e.c.": "3589",
    "setuppaperboardboxes": "2652",
    "setuppaperboardboxmfg": "2652",
    "sheerhosierymills(pt)": "2252",
    "sheerhosierymills(pt)1": "2251",
    "sheetmetalwork": "3444",
    "sheetmetalworkmfg": "3444",
    "shipandboatbuildingandrepairing": "373",
    "shipbuilding&repairing": "3731",
    "shirts,men's&boys'": "2321",
    "shortening&cookingoils": "2079",
    "showcase,partition,shelving,&lockermfg": "3499",
    "showcase,partition,shelving,&lockermfg(pt)": "2426",
    "showcase,partition,shelving,&lockermfg(pt)3": "2542",
    "showcase,partition,shelving,&lockermfg(pt)4": "2541",
    "signmfg": "3993",
    "signs&advertisingdisplays": "3993",
    "silveroremining": "1044",
    "silverores": "1044",
    "silverware&platedware": "3914",
    "silverware&platedwaremfg(pt)": "3914",
    "single-familyhousingconstruction(pt)": "1521",
    "single-familyhousingconstruction(pt)1": "1531",
    "smallarms": "3484",
    "smallarmsammunition": "3482",
    "smallarmsammunitionmfg": "3482",
    "smallarmsmfg": "3484",
    "soap&otherdetergentmfg(pt)": "2841",
    "soap&otherdetergentmfg(pt)4": "2844",
    "soap&otherdetergents": "2841",
    "soaps,cleaners,andtoiletgoods": "284",
    "softdrinkmfg": "2086",
    "softwoodveneer&plywood": "2436",
    "softwoodveneer&plywoodmfg": "2436",
    "soybeanoilmills": "2075",
    "soybeanprocessing": "2075",
    "spacepropulsionunits&parts": "3764",
    "spacevehicleequipment,n.e.c.": "3769",
    "specialdie&tool,dieset,jig,&fixturemfg": "3544",
    "specialdies,tools,jigs,&fixtures": "3544",
    "specialindustrymachinery": "355",
    "specialindustrymachinery,n.e.c.": "3559",
    "specialproductsawmills,n.e.c.": "2429",
    "specialtradecontractors,n.e.c.": "1799",
    "specialtycanning": "2032",
    "speedchanger,industrialhigh-speeddrive,&gearmfg": "3566",
    "speedchangers,drives,&gears": "3566",
    "spice&extractmfg(pt)": "2899",
    "spice&extractmfg(pt)1": "2087",
    "spice&extractmfg(pt)2": "2095",
    "spice&extractmfg(pt)4": "2099",
    "sporting&athleticgoods,n.e.c.": "3949",
    "sporting&athleticgoodsmfg": "3949",
    "spring(heavygauge)mfg": "3493",
    "spring(lightgauge)mfg": "3495",
    "stationery,tablet,&relatedproductmfg": "2678",
    "stationeryproducts": "2678",
    "steelfoundries(exceptinvestment)": "3325",
    "steelfoundries,n.e.c.": "3325",
    "steelinvestmentfoundries": "3324",
    "steelinvestmentfoundries1": "3324",
    "steelpipe&tubes": "3317",
    "steelsprings,exceptwire": "3493",
    "steelwire&relatedproducts": "3315",
    "steelwiredrawing": "3315",
    "stone,clay,andglassproducts": "32",
    "storagebatteries": "3691",
    "storagebatterymfg": "3691",
    "structuralclayproducts": "325",
    "structuralclayproducts,n.e.c.": "3259",
    "structuralsteelerectioncontractors": "1791",
    "structuralsteelerectionspecialtradecontractors": "1791",
    "structuralwoodmembers,n.e.c.": "2439",
    "sugarandconfectioneryproducts": "206",
    "sugarcanemills": "2061",
    "supportactivitiesforcoalmining": "1241",
    "supportactivitiesformetalmining": "1081",
    "supportactivitiesfornonmetallicminerals(exceptfuels)": "1481",
    "supportactivitiesforoil&gasoperations(pt)": "1382",
    "supportactivitiesforoil&gasoperations(pt)1": "1389",
    "surface-coatedpaperboardmfg": "2675",
    "surfaceactiveagentmfg": "2843",
    "surfaceactiveagents": "2843",
    "surgical&medicalinstrumentmfg(pt)": "3841",
    "surgical&medicalinstruments": "3841",
    "surgicalappliance&suppliesmfg": "2599",
    "surgicalappliance&suppliesmfg(pt)": "3842",
    "surgicalappliances&supplies": "3842",
    "switchgear&switchboardapparatus": "3613",
    "switchgear&switchboardapparatusmfg": "3613",
    "syntheticorganicdye&pigmentmfg": "2865",
    "syntheticrubber": "2822",
    "syntheticrubbermfg": "2822",
    "tanks&tankcomponents": "3795",
    "telephone&telegraphapparatus": "3661",
    "telephoneapparatusmfg": "3661",
    "terrazzo,tile,marble,&mosaicworkspecialtradecontractors": "1743",
    "textile&fabricfinishingmills(pt)": "2299",
    "textile&fabricfinishingmills(pt)1": "2257",
    "textile&fabricfinishingmills(pt)2": "2231",
    "textile&fabricfinishingmills(pt)3": "2258",
    "textile&fabricfinishingmills(pt)4": "2269",
    "textile&fabricfinishingmills(pt)5": "2282",
    "textile&fabricfinishingmills(pt)6": "2284",
    "textilebagmills(pt)": "2392",
    "textilebagmills(pt)1": "2393",
    "textilebags": "2393",
    "textilefinishing,exceptwool": "226",
    "textilegoods,n.e.c.": "2299",
    "textilemachinery": "3552",
    "textilemachinerymfg(pt)": "3699",
    "textilemachinerymfg(pt)1": "3552",
    "textilemillproducts": "22",
    "threadmills": "2284",
    "threadmills(pt)": "2299",
    "threadmills(pt)1": "2284",
    "tile,marble,terrazzo,&mosaiccontractors": "1743",
    "tirecord&fabric": "2296",
    "tirecord&tirefabricmills": "2296",
    "tiremfg(exceptretreading)": "3011",
    "tires&innertubes": "3011",
    "tiresandinnertubes": "301",
    "tobaccoproducts": "21",
    "tobaccostemming&redrying": "2141",
    "tobaccostemming&redrying1": "2141",
    "tobaccostemmingandredrying": "214",
    "toiletpreparationmfg": "2844",
    "toiletpreparations": "2844",
    "tortillamfg": "2099",
    "totalizingfluidmeter&countingdevicemfg": "3824",
    "toysandsportinggoods": "394",
    "tradebinding&relatedwork": "2789",
    "transformers": "3612",
    "transportationequipment": "37",
    "transportationequipment,n.e.c.": "3799",
    "traveltrailer&campermfg(pt)": "3799",
    "traveltrailer&campers": "3792",
    "truck&busbodies": "3713",
    "trucktrailermfg": "3715",
    "trucktrailers": "3715",
    "trussmfg": "2439",
    "turbine&turbinegeneratorsetunitmfg": "3511",
    "turbines&turbinegeneratorsets": "3511",
    "typesetting": "2791",
    "uncoatedpaper&multiwallbagmfg": "2674",
    "underwear&nightwearknittingmills(pt)": "2259",
    "underwear&nightwearknittingmills(pt)1": "2254",
    "unsupportedplasticsbagmfg": "2673",
    "unsupportedplasticsfilm&sheet": "3081",
    "unsupportedplasticsfilm&sheet(exceptpackaging)mfg": "3081",
    "unsupportedplasticspackagingfilm&sheetmfg": "2671",
    "unsupportedplasticsprofileshapemfg": "3082",
    "unsupportedplasticsprofileshapes": "3082",
    "upholsteredhouseholdfurniture": "2512",
    "upholsteredhouseholdfurnituremfg(pt)": "2512",
    "upholsteredhouseholdfurnituremfg(pt)5": "2515",
    "uranium-radium-vanadiumoremining": "1094",
    "uranium-radium-vanadiumores": "1094",
    "urethane&otherfoamproduct(exceptpolystyrene)mfg": "3086",
    "valves&pipefittings,n.e.c.": "3494",
    "vegetableoilmills,n.e.c.": "2076",
    "vehicularlightingequipment": "3647",
    "vehicularlightingequipmentmfg": "3647",
    "vitreouschina,fineearthenware,&otherpotteryproductmfg": "3299",
    "vitreouschina,fineearthenware,&otherpotteryproductmfg(pt)": "3262",
    "vitreouschina,fineearthenware,&otherpotteryproductmfg1": "3263",
    "vitreouschina,fineearthenware,&otherpotteryproductmfg2": "3269",
    "vitreouschinafoodutensils": "3262",
    "vitreouschinaplumbingfixture&bathroomaccessoriesmfg": "3261",
    "vitreousplumbingfixtures": "3261",
    "watch,clock,&partmfg": "3579",
    "watch,clock,&partmfg(pt)": "3873",
    "watches,clocks,&watchcases": "3873",
    "watches,clocks,watchcases,andparts": "387",
    "water,sewer,&pipelineconstruction": "1623",
    "water,sewer,pipeline,&communications&powerlineconstr": "1623",
    "waterproofoutergarments": "2385",
    "waterwelldrillingcontractors": "1781",
    "waterwelldrillingspecialtradecontractors1": "178",
    "waterwelldrillingspecialtradecontractors2": "1781",
    "weaving&finishingmills,wool": "2231",
    "weavingmills,cotton": "2211",
    "weavingmills,synthetics": "2221",
    "weftknitfabricmills": "2257",
    "welding&solderingequipmentmfg(pt)": "3699",
    "weldingapparatus": "3548",
    "wetcornmilling1": "2046",
    "wetcornmilling2": "2046",
    "wineries": "2084",
    "wines,brandy,&brandyspirits": "2084",
    "wiresprings": "3495",
    "women's&children'sunderwear": "2341",
    "women's&girls'cut&sewblouse&shirtmfg(pt)": "2361",
    "women's&girls'cut&sewblouse&shirtmfg(pt)2": "2331",
    "women's&girls'cut&sewdressmfg(pt)": "2361",
    "women's&girls'cut&sewdressmfg(pt)2": "2335",
    "women's&girls'cut&sewotherouterwearmfg(pt)": "2369",
    "women's&girls'cut&sewotherouterwearmfg(pt)1": "2385",
    "women's&girls'cut&sewotherouterwearmfg(pt)4": "2339",
    "women's&girls'cut&sewsuit,coat,skirtmfg(pt)": "2369",
    "women's&girls'cut&sewsuit,coat,skirtmfg(pt)1": "2385",
    "women's&girls'cut&sewsuit,coat,skirtmfg(pt)4": "2337",
    "women's&girls'cut/sewlingerie&nightwearmfg(pt)": "2369",
    "women's&girls'cut/sewlingerie&nightwearmfg(pt)1": "2389",
    "women's&girls'cut/sewlingerie&nightwearmfg(pt)10": "2342",
    "women's&girls'cut/sewlingerie&nightwearmfg(pt)11": "2384",
    "women's&girls'cut/sewlingerie&nightwearmfg(pt)8": "2341",
    "women's,girls',&infants'cut&sewapparelcontractors": "2389",
    "women's,girls',&infants'cut&sewapparelcontractors(pt)": "2361",
    "women's,girls',&infants'cut&sewapparelcontractors(pt)1": "2331",
    "women's,girls',&infants'cut&sewapparelcontractors(pt)11": "2395",
    "women's,girls',&infants'cut&sewapparelcontractors(pt)111": "2385",
    "women's,girls',&infants'cut&sewapparelcontractors(pt)12": "2384",
    "women's,girls',&infants'cut&sewapparelcontractors(pt)2": "2335",
    "women's,girls',&infants'cut&sewapparelcontractors(pt)22": "2369",
    "women's,girls',&infants'cut&sewapparelcontractors(pt)3": "2337",
    "women's,girls',&infants'cut&sewapparelcontractors(pt)5": "2339",
    "women's,girls',&infants'cut&sewapparelcontractors(pt)6": "2341",
    "women's,girls',&infants'cut&sewapparelcontractors(pt)9": "2342",
    "women'sandchildren'souterwear": "233",
    "women'sandchildren'sundergarments": "234",
    "women'sblouses&waists": "2331",
    "women'sdresses": "2335",
    "women'sfootwear(exceptathletic)mfg": "3144",
    "women'sfootwear,exceptathletic": "3144",
    "women'shandbag&pursemfg": "3171",
    "women'shandbags&purses": "3171",
    "women'shosiery,exceptsocks": "2251",
    "women'souterwear,n.e.c.": "2339",
    "women'ssuits&coats": "2337",
    "woodTV&radiocabinets": "2517",
    "woodbuildingsandmobilehomes": "245",
    "woodcontainer&palletmfg(pt)": "2429",
    "woodcontainer&palletmfg(pt)1": "2441",
    "woodcontainer&palletmfg(pt)10": "2449",
    "woodcontainer&palletmfg(pt)2": "2448",
    "woodcontainer&palletmfg(pt)3": "2499",
    "woodcontainers": "244",
    "woodcontainers,n.e.c.": "2449",
    "woodhouseholdfurniture": "2511",
    "woodkitchencabinet&countertopmfg(pt)": "2434",
    "woodkitchencabinet&countertopmfg(pt)5": "2541",
    "woodkitchencabinets": "2434",
    "woodofficefurniture": "2521",
    "woodofficefurnituremfg": "2521",
    "woodpallets&skids": "2448",
    "woodpartitions&fixtures": "2541",
    "woodpreservation": "2491",
    "woodpreserving": "2491",
    "woodproducts,n.e.c.": "2499",
    "woodtelevision,radio,&sewingmachinecabinetmfg": "2517",
    "woodwindow&doormfg": "2431",
    "woodworkingmachinery": "3553",
    "wrecking&demolitioncontractors": "1795",
    "wrecking&demolitionworkspecialtradecontractors": "1795",
    "x-rayapparatus&tubes": "3844",
    "yarnandthreadmills": "228",
    "yarnspinningmills": "2281",
    "yarnspinningmills(pt)": "2299",
    "yarnspinningmills(pt)1": "2281",
    "yarntexturing,throwing,&twistingmills": "2282",
    "yarnthrowing&windingmills": "2282",
    "agricultural Production Crops": "01",
    "agricultural Services": "07 ",
    "agriculture Livestock Production & Animal Specialties": "02",
    "animal Aquaculture": "0273",
    "animal Specialties": "027",
    "animal Specialties, Not Elsewhere Classified": "0279",
    "animal Specialty Services, Except Veterinary": "0752",
    "beef Cattle Feedlots": "0211",
    "beef Cattle, Except Feedlots": "0212",
    "berry Crops": "0171",
    "broiler, Fryer, and Roaster Chickens": "0251",
    "cash Grains": "011",
    "cash Grains, Not Classified Elsewhere": "0119",
    "chicken Eggs": "0252",
    "citrus Fruits": "0174",
    "commercial Fishing": "091",
    "corn": "0115",
    "cotton": "0131",
    "cotton Ginning": "0724",
    "crop Harvesting, Primarily by Machine": "0722",
    "crop Planting, Cultivating, and Protecting": "0721",
    "crop Preparation Services for Market, Except Cotton Ginning": "0723",
    "crop Services": "072",
    "dairy Farms": "024",
    "dairyFarms": "0241",
    "deciduous Tree Fruits": "0175",
    "farm Labor And Management Services": "076",
    "farm Labor Contractors and Crew Leaders": "0761",
    "farm Management Services": "0762",
    "field Crops, Except Cash Grains": "013",
    "field Crops, Except Cash Grains, Not Classified Elsewhere": "0139",
    "finfish": "0912",
    "fish Hatcheries And Preserves": "092",
    "fish Hatcheries and Preserves": "0921",
    "fishing, hunting, and trapping": "09",
    "food Crops Grown Under Cover": "0182",
    "forest Nurseries And Gathering Of Forest": "083",
    "forest Nurseries and Gathering of Forest Products": "0831",
    "forestry": "08",
    "forestry Services": "085",
    "forestryServices": "0851",
    "fruits and Tree Nuts": "017",
    "fruits and Tree Nuts, Not Classified Elsewhere": "0171",
    "fur-Bearing Animals and Rabbit": "0271",
    "general Farms, Primarily Crops": "019",
    "general Farms, Primarily Livestock And Animal": "029",
    "general Farms, Primarily Livestock and Animal Specialties": "0291",
    "general FarmsPrimarily Crops": "0191",
    "general Livestock, Except Dairy and Poultry": "0219",
    "grapes": "0172",
    "hog": "0213",
    "horses and Other Equines": "0272",
    "horticultural Specialties": "018",
    "hunting And Trapping, And Game Propagation": "097",
    "hunting and Trapping, and Game Propagation": "0971",
    "irish Potatoes": "0134",
    "landscape And Horticultural Services": "078",
    "landscape Counseling and Planning": "0781",
    "lawn and Garden Services": "0782",
    "livestock Services, Except Veterinary": "0751",
    "livestock, Except Dairy And Poultry": "021",
    "miscellaneous Marine Products": "0919",
    "ornamental Floriculture & Nursery Products": "0181",
    "ornamental Shrub and Tree Services": "0783",
    "poultry And Eggs": "025",
    "poultry Hatcheries": "0254",
    "poultry and Eggs, Not Elsewhere Classified": "0259",
    "rice": "0112",
    "sheep and Goats": "0214",
    "shellfish": "0913",
    "soil Preparation Services": "071",
    "soilPreparationServices": "0711",
    "soybeans": "0116",
    "sugarcane & Sugar Beets": "0133",
    "timber Tracts": "081",
    "timberTracts": "0811",
    "tobacco": "0132",
    "tree Nuts": "0173",
    "turkeys and Turkey Eggs": "0253",
    "vegetables & Melons": "016",
    "vegetablesMelons": "0161",
    "veterinary Services": "074",
    "veterinary Services for Animal Specialties": "0742",
    "veterinary Services for Livestock": "0741",
    "wheat": "0111"
}